ARGS:
Namespace(ADVERSARIAL=False, ADVERSARIAL_ALPHA=0.25, ADVERSARIAL_EPSILON=0.5, DATANAME='imdb', ENCODER='lstm', MAX_EPOCHS=1000)
--------------------------------------------------------------------------------
model options {'dataset': 'data/imdb.pkl', 'optimizer': <function adadelta at 0x7f030b7cfaa0>, 'validFreq': 370, 'n_words': 10000, 'batch_size': 16, 'decay_c': 0.0, 'patience': 10, 'reload_model': None, 'lrate': 0.0001, 'max_epochs': 1000, 'dispFreq': 10, 'encoder': 'lstm', 'adv_epsilon': 0.5, 'valid_batch_size': 64, 'use_dropout': True, 'adversarial': False, 'dim_proj': 128, 'maxlen': 100, 'saveto': 'saved_models/lstm_adv=False_data=imdb_maxepochs=1000_Nov-17-2015.npz', 'noise_std': 0.0, 'adv_alpha': 0.25, 'test_size': 500, 'saveFreq': 1110}
Loading data
Building model
/afs/.ir/users/a/n/anie/.local/lib/python2.7/site-packages/theano/scan_module/scan_perform_ext.py:133: RuntimeWarning: numpy.ndarray size changed, may indicate binary incompatibility
  from scan_perform.scan_perform import *
Optimization
1998 train examples
105 valid examples
500 test examples
Epoch  0 Update  10 Cost  0.696470471555
Epoch  0 Update  20 Cost  0.693957072388
Epoch  0 Update  30 Cost  0.694524068235
Epoch  0 Update  40 Cost  0.670019159894
Epoch  0 Update  50 Cost  0.673790266733
Epoch  0 Update  60 Cost  0.630707657301
Epoch  0 Update  70 Cost  0.647937888359
Epoch  0 Update  80 Cost  0.744144805652
Epoch  0 Update  90 Cost  0.685992188609
Epoch  0 Update  100 Cost  0.715382063143
Epoch  0 Update  110 Cost  0.685156509169
Epoch  0 Update  120 Cost  0.721721298261
Seen 1998 samples
Epoch  1 Update  130 Cost  0.683885210325
Epoch  1 Update  140 Cost  0.686547094566
Epoch  1 Update  150 Cost  0.633371118312
Epoch  1 Update  160 Cost  0.699029181642
Epoch  1 Update  170 Cost  0.674777457129
Epoch  1 Update  180 Cost  0.713276538959
Epoch  1 Update  190 Cost  0.655549620923
Epoch  1 Update  200 Cost  0.737879161436
Epoch  1 Update  210 Cost  0.683453798297
Epoch  1 Update  220 Cost  0.68402021898
Epoch  1 Update  230 Cost  0.716338228519
Epoch  1 Update  240 Cost  0.629199540124
Epoch  1 Update  250 Cost  0.623401423718
Seen 1998 samples
Epoch  2 Update  260 Cost  0.648383617896
Epoch  2 Update  270 Cost  0.710819595102
Epoch  2 Update  280 Cost  0.648319174004
Epoch  2 Update  290 Cost  0.716099601497
Epoch  2 Update  300 Cost  0.656379665656
Epoch  2 Update  310 Cost  0.652034831143
Epoch  2 Update  320 Cost  0.620267688505
Epoch  2 Update  330 Cost  0.68263596455
Epoch  2 Update  340 Cost  0.66228385034
Epoch  2 Update  350 Cost  0.60775876553
Epoch  2 Update  360 Cost  0.695927094395
Epoch  2 Update  370 Cost  0.696378864552
('Train ', 0.42292292292292288, 'Valid ', 0.419047619047619, 'Test ', 0.51400000000000001)
Seen 1998 samples
Epoch  3 Update  380 Cost  0.686894970105
Epoch  3 Update  390 Cost  0.630709267577
Epoch  3 Update  400 Cost  0.672962228031
Epoch  3 Update  410 Cost  0.682143315236
Epoch  3 Update  420 Cost  0.701533592405
Epoch  3 Update  430 Cost  0.644579726027
Epoch  3 Update  440 Cost  0.731529729534
Epoch  3 Update  450 Cost  0.703705615514
Epoch  3 Update  460 Cost  0.644726077168
Epoch  3 Update  470 Cost  0.705313623797
Epoch  3 Update  480 Cost  0.664168379612
Epoch  3 Update  490 Cost  0.668011883249
Epoch  3 Update  500 Cost  0.660716541654
Seen 1998 samples
Epoch  4 Update  510 Cost  0.666947243357
Epoch  4 Update  520 Cost  0.709015121004
Epoch  4 Update  530 Cost  0.699200090228
Epoch  4 Update  540 Cost  0.685057118244
Epoch  4 Update  550 Cost  0.645850086765
Epoch  4 Update  560 Cost  0.67115479974
Epoch  4 Update  570 Cost  0.705657867238
Epoch  4 Update  580 Cost  0.703381445075
Epoch  4 Update  590 Cost  0.642961939103
Epoch  4 Update  600 Cost  0.58622037756
Epoch  4 Update  610 Cost  0.654575754079
Epoch  4 Update  620 Cost  0.761186531963
Seen 1998 samples
Epoch  5 Update  630 Cost  0.649962494354
Epoch  5 Update  640 Cost  0.689377257463
Epoch  5 Update  650 Cost  0.671087211095
Epoch  5 Update  660 Cost  0.687199214549
Epoch  5 Update  670 Cost  0.718656318085
Epoch  5 Update  680 Cost  0.70866961371
Epoch  5 Update  690 Cost  0.643306774742
Epoch  5 Update  700 Cost  0.685059451036
Epoch  5 Update  710 Cost  0.586328451425
Epoch  5 Update  720 Cost  0.665133958079
Epoch  5 Update  730 Cost  0.659272189254
Epoch  5 Update  740 Cost  0.67306288736
('Train ', 0.42292292292292288, 'Valid ', 0.419047619047619, 'Test ', 0.51400000000000001)
Epoch  5 Update  750 Cost  0.700423364207
Seen 1998 samples
Epoch  6 Update  760 Cost  0.668078348215
Epoch  6 Update  770 Cost  0.668682074342
Epoch  6 Update  780 Cost  0.664562496641
Epoch  6 Update  790 Cost  0.706230896505
Epoch  6 Update  800 Cost  0.672579526305
Epoch  6 Update  810 Cost  0.634310896434
Epoch  6 Update  820 Cost  0.642938355719
Epoch  6 Update  830 Cost  0.629518285689
Epoch  6 Update  840 Cost  0.656167630783
Epoch  6 Update  850 Cost  0.696792943746
Epoch  6 Update  860 Cost  0.660946773421
Epoch  6 Update  870 Cost  0.628827376566
Seen 1998 samples
Epoch  7 Update  880 Cost  0.621862495915
Epoch  7 Update  890 Cost  0.76157790415
Epoch  7 Update  900 Cost  0.681349258272
Epoch  7 Update  910 Cost  0.609205789081
Epoch  7 Update  920 Cost  0.890134767799
Epoch  7 Update  930 Cost  0.616849454497
Epoch  7 Update  940 Cost  0.68370429596
Epoch  7 Update  950 Cost  0.607374243888
Epoch  7 Update  960 Cost  0.586663502352
Epoch  7 Update  970 Cost  0.598646428978
Epoch  7 Update  980 Cost  0.616950258979
Epoch  7 Update  990 Cost  0.797157951961
Epoch  7 Update  1000 Cost  0.622581118441
Seen 1998 samples
Epoch  8 Update  1010 Cost  0.576537838971
Epoch  8 Update  1020 Cost  0.496193240715
Epoch  8 Update  1030 Cost  0.610779380255
Epoch  8 Update  1040 Cost  0.528721818064
Epoch  8 Update  1050 Cost  0.526943818701
Epoch  8 Update  1060 Cost  0.552098492602
Epoch  8 Update  1070 Cost  0.513642590801
Epoch  8 Update  1080 Cost  0.506684795543
Epoch  8 Update  1090 Cost  0.568048586798
Epoch  8 Update  1100 Cost  1.18391585441
Epoch  8 Update  1110 Cost  0.527928327795
Saving... Done
('Train ', 0.23223223223223222, 'Valid ', 0.24761904761904763, 'Test ', 0.35599999999999998)
Epoch  8 Update  1120 Cost  0.445517668527
Seen 1998 samples
Epoch  9 Update  1130 Cost  0.393198774695
Epoch  9 Update  1140 Cost  0.38567292906
Epoch  9 Update  1150 Cost  0.565046278656
Epoch  9 Update  1160 Cost  0.539219928426
Epoch  9 Update  1170 Cost  0.28311575681
Epoch  9 Update  1180 Cost  0.3329795069
Epoch  9 Update  1190 Cost  0.448495005296
Epoch  9 Update  1200 Cost  0.263457470111
Epoch  9 Update  1210 Cost  0.496709118737
Epoch  9 Update  1220 Cost  0.247866426126
Epoch  9 Update  1230 Cost  0.463197199303
Epoch  9 Update  1240 Cost  0.295891241719
Epoch  9 Update  1250 Cost  0.379906916173
Seen 1998 samples
Epoch  10 Update  1260 Cost  0.48353251224
Epoch  10 Update  1270 Cost  0.60774747533
Epoch  10 Update  1280 Cost  0.538659795439
Epoch  10 Update  1290 Cost  0.264909400674
Epoch  10 Update  1300 Cost  0.553879766374
Epoch  10 Update  1310 Cost  0.287422934774
Epoch  10 Update  1320 Cost  0.190434129963
Epoch  10 Update  1330 Cost  0.288785550479
Epoch  10 Update  1340 Cost  0.293903344099
Epoch  10 Update  1350 Cost  0.430426379627
Epoch  10 Update  1360 Cost  0.351642438761
Epoch  10 Update  1370 Cost  0.398152374049
Seen 1998 samples
Epoch  11 Update  1380 Cost  0.305363555748
Epoch  11 Update  1390 Cost  0.379961154095
Epoch  11 Update  1400 Cost  0.283950191908
Epoch  11 Update  1410 Cost  0.341452736754
Epoch  11 Update  1420 Cost  0.231058754749
Epoch  11 Update  1430 Cost  0.298273029106
Epoch  11 Update  1440 Cost  0.150982415225
Epoch  11 Update  1450 Cost  0.289508633856
Epoch  11 Update  1460 Cost  0.246922802992
Epoch  11 Update  1470 Cost  0.247694315224
Epoch  11 Update  1480 Cost  0.344053812789
('Train ', 0.06256256256256254, 'Valid ', 0.19999999999999996, 'Test ', 0.24399999999999999)
Epoch  11 Update  1490 Cost  0.525536115194
Epoch  11 Update  1500 Cost  0.392465215747
Seen 1998 samples
Epoch  12 Update  1510 Cost  0.0734537842464
Epoch  12 Update  1520 Cost  0.0847534841309
Epoch  12 Update  1530 Cost  0.115168109925
Epoch  12 Update  1540 Cost  0.141683814983
Epoch  12 Update  1550 Cost  0.230445419917
Epoch  12 Update  1560 Cost  0.162836684753
Epoch  12 Update  1570 Cost  0.203043850649
Epoch  12 Update  1580 Cost  0.08451953172
Epoch  12 Update  1590 Cost  0.090632537294
Epoch  12 Update  1600 Cost  0.354886874997
Epoch  12 Update  1610 Cost  0.64455303993
Epoch  12 Update  1620 Cost  0.138890102468
Seen 1998 samples
Epoch  13 Update  1630 Cost  0.211253341442
Epoch  13 Update  1640 Cost  0.0399574163337
Epoch  13 Update  1650 Cost  0.369410232773
Epoch  13 Update  1660 Cost  0.12578312101
Epoch  13 Update  1670 Cost  0.216529711133
Epoch  13 Update  1680 Cost  0.296291983425
Epoch  13 Update  1690 Cost  0.0669176098312
Epoch  13 Update  1700 Cost  0.216868379737
Epoch  13 Update  1710 Cost  0.3253159275
Epoch  13 Update  1720 Cost  0.386315079107
Epoch  13 Update  1730 Cost  0.0872731287681
Epoch  13 Update  1740 Cost  0.118953226893
Epoch  13 Update  1750 Cost  0.127790059448
Seen 1998 samples
Epoch  14 Update  1760 Cost  0.0324948990746
Epoch  14 Update  1770 Cost  0.00860825823651
Epoch  14 Update  1780 Cost  0.0467449700543
Epoch  14 Update  1790 Cost  0.00659548741082
Epoch  14 Update  1800 Cost  0.0359279471442
Epoch  14 Update  1810 Cost  0.27672816548
Epoch  14 Update  1820 Cost  0.346880712793
Epoch  14 Update  1830 Cost  0.0545516445869
Epoch  14 Update  1840 Cost  0.0834949130924
Epoch  14 Update  1850 Cost  0.0242452017589
('Train ', 0.018018018018018056, 'Valid ', 0.19047619047619047, 'Test ', 0.20999999999999996)
Epoch  14 Update  1860 Cost  0.10813989307
Epoch  14 Update  1870 Cost  0.0565285609359
Seen 1998 samples
Epoch  15 Update  1880 Cost  0.00782939006188
Epoch  15 Update  1890 Cost  0.0355123271332
Epoch  15 Update  1900 Cost  0.0673980253697
Epoch  15 Update  1910 Cost  0.0110998320956
Epoch  15 Update  1920 Cost  0.0377861503888
Epoch  15 Update  1930 Cost  0.136444570156
Epoch  15 Update  1940 Cost  0.0235369873379
Epoch  15 Update  1950 Cost  0.0265024378905
Epoch  15 Update  1960 Cost  0.241834295865
Epoch  15 Update  1970 Cost  0.143646041458
Epoch  15 Update  1980 Cost  0.00454794840495
Epoch  15 Update  1990 Cost  0.0127369609743
Epoch  15 Update  2000 Cost  0.123069135635
Seen 1998 samples
Epoch  16 Update  2010 Cost  0.0105703148252
Epoch  16 Update  2020 Cost  0.0130316709195
Epoch  16 Update  2030 Cost  0.00509179877433
Epoch  16 Update  2040 Cost  0.0521835278425
Epoch  16 Update  2050 Cost  0.021456614204
Epoch  16 Update  2060 Cost  0.0196843466026
Epoch  16 Update  2070 Cost  0.0222891815441
Epoch  16 Update  2080 Cost  0.121416546208
Epoch  16 Update  2090 Cost  0.0168654625396
Epoch  16 Update  2100 Cost  0.0768019370903
Epoch  16 Update  2110 Cost  0.104436856789
Epoch  16 Update  2120 Cost  0.030137114107
Seen 1998 samples
Epoch  17 Update  2130 Cost  0.725823629878
Epoch  17 Update  2140 Cost  0.00501538853082
Epoch  17 Update  2150 Cost  0.0301711900089
Epoch  17 Update  2160 Cost  0.0160273719185
Epoch  17 Update  2170 Cost  0.0264061923084
Epoch  17 Update  2180 Cost  0.0186089217861
Epoch  17 Update  2190 Cost  0.00906176936407
Epoch  17 Update  2200 Cost  0.00538430530206
Epoch  17 Update  2210 Cost  0.0692539216416
Epoch  17 Update  2220 Cost  0.00878508861045
Saving... Done
('Train ', 0.0075075075075075048, 'Valid ', 0.19999999999999996, 'Test ', 0.20999999999999996)
Epoch  17 Update  2230 Cost  0.101560644381
Epoch  17 Update  2240 Cost  0.0740532445907
Epoch  17 Update  2250 Cost  0.0610006451765
Seen 1998 samples
Epoch  18 Update  2260 Cost  0.00869876507245
Epoch  18 Update  2270 Cost  0.0226795455863
Epoch  18 Update  2280 Cost  0.364662855066
Epoch  18 Update  2290 Cost  0.0063202938619
Epoch  18 Update  2300 Cost  0.00325892022951
Epoch  18 Update  2310 Cost  0.0423640155085
Epoch  18 Update  2320 Cost  0.00252424684309
Epoch  18 Update  2330 Cost  0.00366929353515
Epoch  18 Update  2340 Cost  0.143140682259
Epoch  18 Update  2350 Cost  0.0140408506914
Epoch  18 Update  2360 Cost  0.0216883196254
Epoch  18 Update  2370 Cost  0.00408840888478
Seen 1998 samples
Epoch  19 Update  2380 Cost  0.0368514860886
Epoch  19 Update  2390 Cost  0.00158086728248
Epoch  19 Update  2400 Cost  0.00224463224446
Epoch  19 Update  2410 Cost  0.0211120040785
Epoch  19 Update  2420 Cost  0.0081934228633
Epoch  19 Update  2430 Cost  0.0139755753866
Epoch  19 Update  2440 Cost  0.00772295444383
Epoch  19 Update  2450 Cost  0.00308487220248
Epoch  19 Update  2460 Cost  0.0226540963547
Epoch  19 Update  2470 Cost  0.00867449023494
Epoch  19 Update  2480 Cost  0.00628482523975
Epoch  19 Update  2490 Cost  0.00312360720655
Epoch  19 Update  2500 Cost  0.0122953754966
Seen 1998 samples
Epoch  20 Update  2510 Cost  0.0461077500116
Epoch  20 Update  2520 Cost  0.00345375700347
Epoch  20 Update  2530 Cost  0.0429149997647
Epoch  20 Update  2540 Cost  0.0132634095614
Epoch  20 Update  2550 Cost  0.0979690294026
Epoch  20 Update  2560 Cost  0.00084332456644
Epoch  20 Update  2570 Cost  0.0273740612576
Epoch  20 Update  2580 Cost  0.00218319225
Epoch  20 Update  2590 Cost  0.0775034217926
('Train ', 0.0070070070070069601, 'Valid ', 0.17142857142857137, 'Test ', 0.20999999999999996)
Epoch  20 Update  2600 Cost  0.0407165228013
Epoch  20 Update  2610 Cost  0.0169393507338
Epoch  20 Update  2620 Cost  0.0131552262217
Seen 1998 samples
Epoch  21 Update  2630 Cost  0.00531588225684
Epoch  21 Update  2640 Cost  0.00253628656466
Epoch  21 Update  2650 Cost  0.00377896172722
Epoch  21 Update  2660 Cost  0.0430767738456
Epoch  21 Update  2670 Cost  0.000697011197369
Epoch  21 Update  2680 Cost  0.0262125475854
Epoch  21 Update  2690 Cost  0.0636640197322
Epoch  21 Update  2700 Cost  0.00808424283166
Epoch  21 Update  2710 Cost  0.0656778194988
Epoch  21 Update  2720 Cost  0.0287017482873
Epoch  21 Update  2730 Cost  0.0121648992897
Epoch  21 Update  2740 Cost  0.0115604932993
Epoch  21 Update  2750 Cost  0.0110697713511
Seen 1998 samples
Epoch  22 Update  2760 Cost  0.00137650070661
Epoch  22 Update  2770 Cost  0.00261171123813
Epoch  22 Update  2780 Cost  0.000441845706091
Epoch  22 Update  2790 Cost  0.00578509043892
Epoch  22 Update  2800 Cost  0.00340363951678
Epoch  22 Update  2810 Cost  0.00191772461521
Epoch  22 Update  2820 Cost  0.011445915286
Epoch  22 Update  2830 Cost  0.00140132923368
Epoch  22 Update  2840 Cost  0.00188048826557
Epoch  22 Update  2850 Cost  0.000635152947333
Epoch  22 Update  2860 Cost  0.00289333127903
Epoch  22 Update  2870 Cost  0.000147474290642
Seen 1998 samples
Epoch  23 Update  2880 Cost  0.00201267122173
Epoch  23 Update  2890 Cost  0.00116988609979
Epoch  23 Update  2900 Cost  0.00322267795288
Epoch  23 Update  2910 Cost  0.00416716667967
Epoch  23 Update  2920 Cost  0.00121520215519
Epoch  23 Update  2930 Cost  0.00293080748149
Epoch  23 Update  2940 Cost  0.0793346749971
Epoch  23 Update  2950 Cost  0.122921890861
Epoch  23 Update  2960 Cost  0.040151965845
('Train ', 0.00050050050050054473, 'Valid ', 0.15238095238095239, 'Test ', 0.17200000000000004)
Epoch  23 Update  2970 Cost  0.0154255781949
Epoch  23 Update  2980 Cost  0.00211855076616
Epoch  23 Update  2990 Cost  0.00205690096319
Epoch  23 Update  3000 Cost  0.000407633908037
Seen 1998 samples
Epoch  24 Update  3010 Cost  0.000403347220578
Epoch  24 Update  3020 Cost  0.000198109780901
Epoch  24 Update  3030 Cost  0.00097863848815
Epoch  24 Update  3040 Cost  0.00200061341495
Epoch  24 Update  3050 Cost  0.00425988590755
Epoch  24 Update  3060 Cost  0.0101730423503
Epoch  24 Update  3070 Cost  0.00217244099635
Epoch  24 Update  3080 Cost  6.83637522907e-05
Epoch  24 Update  3090 Cost  0.000505776717392
Epoch  24 Update  3100 Cost  0.00253499167844
Epoch  24 Update  3110 Cost  0.000149566023242
Epoch  24 Update  3120 Cost  0.00330641979137
Seen 1998 samples
Epoch  25 Update  3130 Cost  0.0531804494636
Epoch  25 Update  3140 Cost  0.0067090601423
Epoch  25 Update  3150 Cost  0.00199777243386
Epoch  25 Update  3160 Cost  0.000259089812577
Epoch  25 Update  3170 Cost  0.00406565119937
Epoch  25 Update  3180 Cost  0.000894492092035
Epoch  25 Update  3190 Cost  0.000589272385842
Epoch  25 Update  3200 Cost  0.000579299323475
Epoch  25 Update  3210 Cost  0.000866230729673
Epoch  25 Update  3220 Cost  0.000288433663845
Epoch  25 Update  3230 Cost  0.00199845961082
Epoch  25 Update  3240 Cost  0.000544192303212
Epoch  25 Update  3250 Cost  0.000636866620785
Seen 1998 samples
Epoch  26 Update  3260 Cost  0.000188197756793
Epoch  26 Update  3270 Cost  0.00163184589808
Epoch  26 Update  3280 Cost  0.000278641004905
Epoch  26 Update  3290 Cost  0.0658080882591
Epoch  26 Update  3300 Cost  0.00148556132398
Epoch  26 Update  3310 Cost  0.000273195552515
Epoch  26 Update  3320 Cost  0.000859356826636
Epoch  26 Update  3330 Cost  0.000806387210825
Saving... Done
('Train ', 0.0, 'Valid ', 0.20952380952380956, 'Test ', 0.18799999999999994)
Epoch  26 Update  3340 Cost  0.00228813109546
Epoch  26 Update  3350 Cost  0.000310999017338
Epoch  26 Update  3360 Cost  0.000874792783806
Epoch  26 Update  3370 Cost  0.000935968601421
Seen 1998 samples
Epoch  27 Update  3380 Cost  0.00017939011849
Epoch  27 Update  3390 Cost  0.00105229392425
Epoch  27 Update  3400 Cost  0.00014087362928
Epoch  27 Update  3410 Cost  0.000127212715772
Epoch  27 Update  3420 Cost  1.37749812879e-05
Epoch  27 Update  3430 Cost  0.000609344438452
Epoch  27 Update  3440 Cost  0.00168904562572
Epoch  27 Update  3450 Cost  0.000257769682139
Epoch  27 Update  3460 Cost  0.000299725406683
Epoch  27 Update  3470 Cost  0.00015657554591
Epoch  27 Update  3480 Cost  0.00149001463522
Epoch  27 Update  3490 Cost  0.000715198414412
Epoch  27 Update  3500 Cost  0.000368345031197
Seen 1998 samples
Epoch  28 Update  3510 Cost  0.00091400378257
Epoch  28 Update  3520 Cost  6.91341691911e-05
Epoch  28 Update  3530 Cost  0.000548767354716
Epoch  28 Update  3540 Cost  0.000122434640266
Epoch  28 Update  3550 Cost  0.000583630108813
Epoch  28 Update  3560 Cost  0.000518283175493
Epoch  28 Update  3570 Cost  0.000695617355204
Epoch  28 Update  3580 Cost  0.000906440816449
Epoch  28 Update  3590 Cost  0.000226848261534
Epoch  28 Update  3600 Cost  0.00149288577833
Epoch  28 Update  3610 Cost  9.47187508865e-05
Epoch  28 Update  3620 Cost  0.0233164363436
Seen 1998 samples
Epoch  29 Update  3630 Cost  0.00192310642661
Epoch  29 Update  3640 Cost  0.000654598819302
Epoch  29 Update  3650 Cost  0.000354927149196
Epoch  29 Update  3660 Cost  0.000322765526959
Epoch  29 Update  3670 Cost  0.00323976490009
Epoch  29 Update  3680 Cost  0.000119085919122
Epoch  29 Update  3690 Cost  0.000328053961998
Epoch  29 Update  3700 Cost  1.74537351633e-05
('Train ', 0.00050050050050054473, 'Valid ', 0.19999999999999996, 'Test ', 0.18200000000000005)
Epoch  29 Update  3710 Cost  0.00100285935648
Epoch  29 Update  3720 Cost  0.000721757269324
Epoch  29 Update  3730 Cost  0.00200050122077
Epoch  29 Update  3740 Cost  0.00035771216422
Epoch  29 Update  3750 Cost  0.00379077535042
Seen 1998 samples
Epoch  30 Update  3760 Cost  0.000102320093257
Epoch  30 Update  3770 Cost  0.00174691473246
Epoch  30 Update  3780 Cost  0.000603443070013
Epoch  30 Update  3790 Cost  8.86258872435e-06
Epoch  30 Update  3800 Cost  0.00044152022372
Epoch  30 Update  3810 Cost  0.000909903972746
Epoch  30 Update  3820 Cost  1.40612489288e-05
Epoch  30 Update  3830 Cost  0.000176990866225
Epoch  30 Update  3840 Cost  0.000353217461558
Epoch  30 Update  3850 Cost  1.86679594613e-05
Epoch  30 Update  3860 Cost  4.82337394718e-05
Epoch  30 Update  3870 Cost  0.000637911645717
Seen 1998 samples
Epoch  31 Update  3880 Cost  0.0010445389953
Epoch  31 Update  3890 Cost  0.000185586895827
Epoch  31 Update  3900 Cost  0.00052990020081
Epoch  31 Update  3910 Cost  0.000251231727935
Epoch  31 Update  3920 Cost  0.000115016670494
Epoch  31 Update  3930 Cost  0.000205424270994
Epoch  31 Update  3940 Cost  1.30670759399e-05
Epoch  31 Update  3950 Cost  0.000109553896351
Epoch  31 Update  3960 Cost  2.3764339713e-05
Epoch  31 Update  3970 Cost  0.000828991218221
Epoch  31 Update  3980 Cost  0.00239814739351
Epoch  31 Update  3990 Cost  0.000460607075204
Epoch  31 Update  4000 Cost  0.000144377800514
Seen 1998 samples
Epoch  32 Update  4010 Cost  0.000510053858958
Epoch  32 Update  4020 Cost  0.000864887891718
Epoch  32 Update  4030 Cost  6.75814685842e-05
Epoch  32 Update  4040 Cost  0.000263215051945
Epoch  32 Update  4050 Cost  8.41119378832e-05
Epoch  32 Update  4060 Cost  0.000548248276685
Epoch  32 Update  4070 Cost  9.71514562053e-05
('Train ', 0.0, 'Valid ', 0.15238095238095239, 'Test ', 0.18999999999999995)
Epoch  32 Update  4080 Cost  0.00115293187376
Epoch  32 Update  4090 Cost  1.09796015443e-05
Epoch  32 Update  4100 Cost  1.8184545005e-05
Epoch  32 Update  4110 Cost  0.000583815639032
Epoch  32 Update  4120 Cost  6.78063178001e-05
Seen 1998 samples
Epoch  33 Update  4130 Cost  0.00187880629945
Epoch  33 Update  4140 Cost  4.63613926803e-05
Epoch  33 Update  4150 Cost  0.000324601676235
Epoch  33 Update  4160 Cost  0.000444395292603
Epoch  33 Update  4170 Cost  0.00042792785854
Epoch  33 Update  4180 Cost  1.30691235531e-05
Epoch  33 Update  4190 Cost  0.0147326099696
Epoch  33 Update  4200 Cost  2.54481690975e-05
Epoch  33 Update  4210 Cost  0.000498567138991
Epoch  33 Update  4220 Cost  8.23201344549e-05
Epoch  33 Update  4230 Cost  0.000318592797391
Epoch  33 Update  4240 Cost  1.56438146204e-05
Epoch  33 Update  4250 Cost  4.25754963554e-05
Seen 1998 samples
Epoch  34 Update  4260 Cost  4.69896811691e-05
Epoch  34 Update  4270 Cost  3.36594628749e-05
Epoch  34 Update  4280 Cost  0.000124086326575
Epoch  34 Update  4290 Cost  7.63092749365e-05
Epoch  34 Update  4300 Cost  1.99760579499e-05
Epoch  34 Update  4310 Cost  4.35965507279e-05
Epoch  34 Update  4320 Cost  2.49796304092e-05
Epoch  34 Update  4330 Cost  0.000164579083087
Epoch  34 Update  4340 Cost  0.000395792147541
Epoch  34 Update  4350 Cost  9.41876230181e-05
Epoch  34 Update  4360 Cost  8.30812199801e-05
Epoch  34 Update  4370 Cost  1.34318748664e-05
Seen 1998 samples
Epoch  35 Update  4380 Cost  5.60394113079e-05
Epoch  35 Update  4390 Cost  0.000160284223954
Epoch  35 Update  4400 Cost  0.000119816326515
Epoch  35 Update  4410 Cost  0.000139448113165
Epoch  35 Update  4420 Cost  0.000184708059556
Epoch  35 Update  4430 Cost  1.03804585917e-05
Epoch  35 Update  4440 Cost  0.000627082620303
Saving... Done
('Train ', 0.0, 'Valid ', 0.15238095238095239, 'Test ', 0.19399999999999995)
Epoch  35 Update  4450 Cost  1.95099143082e-05
Epoch  35 Update  4460 Cost  5.63284253358e-05
Epoch  35 Update  4470 Cost  0.000122964452445
Epoch  35 Update  4480 Cost  0.00020048143032
Epoch  35 Update  4490 Cost  3.41380143952e-05
Epoch  35 Update  4500 Cost  9.90202807932e-06
Seen 1998 samples
Epoch  36 Update  4510 Cost  2.96615497366e-05
Epoch  36 Update  4520 Cost  0.000224798627995
Epoch  36 Update  4530 Cost  5.68617573198e-05
Epoch  36 Update  4540 Cost  0.00046195563996
Epoch  36 Update  4550 Cost  1.26105700516e-05
Epoch  36 Update  4560 Cost  3.71694378414e-05
Epoch  36 Update  4570 Cost  8.85019517019e-05
Epoch  36 Update  4580 Cost  0.000279248820939
Epoch  36 Update  4590 Cost  7.44104602878e-06
Epoch  36 Update  4600 Cost  0.000470047917829
Epoch  36 Update  4610 Cost  0.000329810237711
Epoch  36 Update  4620 Cost  7.34648107525e-05
Seen 1998 samples
Epoch  37 Update  4630 Cost  2.26760168196e-05
Epoch  37 Update  4640 Cost  2.96879961581e-05
Epoch  37 Update  4650 Cost  5.33955699112e-05
Epoch  37 Update  4660 Cost  2.25334756178e-05
Epoch  37 Update  4670 Cost  3.18851601748e-06
Epoch  37 Update  4680 Cost  5.07071023007e-05
Epoch  37 Update  4690 Cost  2.1561847538e-05
Epoch  37 Update  4700 Cost  2.57764652147e-05
Epoch  37 Update  4710 Cost  0.000198691793821
Epoch  37 Update  4720 Cost  7.684173203e-05
Epoch  37 Update  4730 Cost  1.37277832961e-05
Epoch  37 Update  4740 Cost  5.42192071095e-05
Epoch  37 Update  4750 Cost  2.57832744966e-05
Seen 1998 samples
Epoch  38 Update  4760 Cost  8.92121692498e-05
Epoch  38 Update  4770 Cost  5.88617957808e-05
Epoch  38 Update  4780 Cost  1.35961681254e-05
Epoch  38 Update  4790 Cost  9.47650823437e-05
Epoch  38 Update  4800 Cost  0.000113186901066
Epoch  38 Update  4810 Cost  0.00010702826095
('Train ', 0.0, 'Valid ', 0.16190476190476188, 'Test ', 0.19199999999999995)
Epoch  38 Update  4820 Cost  1.77572225147e-05
Epoch  38 Update  4830 Cost  4.82916987137e-05
Epoch  38 Update  4840 Cost  2.59937442915e-05
Epoch  38 Update  4850 Cost  7.33613869409e-05
Epoch  38 Update  4860 Cost  4.4097519945e-07
Epoch  38 Update  4870 Cost  8.90182328489e-05
Seen 1998 samples
Epoch  39 Update  4880 Cost  7.74219524701e-05
Epoch  39 Update  4890 Cost  7.80528767581e-05
Epoch  39 Update  4900 Cost  4.91042847463e-05
Epoch  39 Update  4910 Cost  0.000154884245043
Epoch  39 Update  4920 Cost  5.8788511592e-06
Epoch  39 Update  4930 Cost  7.67065138039e-05
Epoch  39 Update  4940 Cost  7.7753315037e-05
Epoch  39 Update  4950 Cost  0.000154894809741
Epoch  39 Update  4960 Cost  0.00056569541434
Epoch  39 Update  4970 Cost  3.22283163914e-05
Epoch  39 Update  4980 Cost  8.20737040469e-05
Epoch  39 Update  4990 Cost  5.66820940998e-05
Epoch  39 Update  5000 Cost  3.07737773798e-06
Seen 1998 samples
Epoch  40 Update  5010 Cost  0.000230245149732
Epoch  40 Update  5020 Cost  1.18666764504e-05
Epoch  40 Update  5030 Cost  1.15769596551e-05
Epoch  40 Update  5040 Cost  1.45537004657e-05
Epoch  40 Update  5050 Cost  8.41411216075e-05
Epoch  40 Update  5060 Cost  3.52954849326e-05
Epoch  40 Update  5070 Cost  3.83328965601e-05
Epoch  40 Update  5080 Cost  3.07198023265e-05
Epoch  40 Update  5090 Cost  1.31031456793e-06
Epoch  40 Update  5100 Cost  1.29926078691e-05
Epoch  40 Update  5110 Cost  4.22430699604e-05
Epoch  40 Update  5120 Cost  2.87247879608e-05
Seen 1998 samples
Epoch  41 Update  5130 Cost  0.00012692921343
Epoch  41 Update  5140 Cost  5.1748615942e-05
Epoch  41 Update  5150 Cost  0.000130894079033
Epoch  41 Update  5160 Cost  0.000759769853487
Epoch  41 Update  5170 Cost  1.55787328213e-05
Epoch  41 Update  5180 Cost  4.62312366121e-05
('Train ', 0.0, 'Valid ', 0.17142857142857137, 'Test ', 0.18000000000000005)
Epoch  41 Update  5190 Cost  2.40051330173e-05
Epoch  41 Update  5200 Cost  1.19751189981e-06
Epoch  41 Update  5210 Cost  7.49749806095e-06
Epoch  41 Update  5220 Cost  3.63262251742e-06
Epoch  41 Update  5230 Cost  2.25963523694e-05
Epoch  41 Update  5240 Cost  1.18727482562e-05
Epoch  41 Update  5250 Cost  0.000103323118512
Seen 1998 samples
Epoch  42 Update  5260 Cost  4.85048552102e-05
Epoch  42 Update  5270 Cost  1.13502500618e-05
Epoch  42 Update  5280 Cost  2.02191196819e-05
Epoch  42 Update  5290 Cost  2.3567390271e-05
Epoch  42 Update  5300 Cost  1.79206305299e-05
Epoch  42 Update  5310 Cost  5.67659431935e-06
Epoch  42 Update  5320 Cost  4.8248945382e-05
Epoch  42 Update  5330 Cost  0.000155028131534
Epoch  42 Update  5340 Cost  0.000206265870463
Epoch  42 Update  5350 Cost  4.8950787282e-05
Epoch  42 Update  5360 Cost  0.000263342365192
Epoch  42 Update  5370 Cost  0.000119886974392
Seen 1998 samples
Epoch  43 Update  5380 Cost  3.82041760344e-05
Epoch  43 Update  5390 Cost  5.76755588448e-05
Epoch  43 Update  5400 Cost  1.75502270158e-05
Epoch  43 Update  5410 Cost  0.000171469737171
Epoch  43 Update  5420 Cost  2.39167327288e-05
Epoch  43 Update  5430 Cost  9.89469187659e-05
Epoch  43 Update  5440 Cost  0.00014255434877
Epoch  43 Update  5450 Cost  8.2950693734e-07
Epoch  43 Update  5460 Cost  6.03696506741e-05
Epoch  43 Update  5470 Cost  3.04441637739e-06
Epoch  43 Update  5480 Cost  0.000204876554723
Epoch  43 Update  5490 Cost  0.000212406883569
Epoch  43 Update  5500 Cost  7.67183374162e-05
Seen 1998 samples
Epoch  44 Update  5510 Cost  0.000173884206911
Epoch  44 Update  5520 Cost  7.16326065875e-05
Epoch  44 Update  5530 Cost  6.18402806886e-05
Epoch  44 Update  5540 Cost  3.39294295118e-06
Epoch  44 Update  5550 Cost  0.000259722524773
Saving... Done
('Train ', 0.0, 'Valid ', 0.15238095238095239, 'Test ', 0.18000000000000005)
Epoch  44 Update  5560 Cost  1.11175826779e-05
Epoch  44 Update  5570 Cost  0.00123023564781
Epoch  44 Update  5580 Cost  8.49559110005e-06
Epoch  44 Update  5590 Cost  3.56837678854e-05
Epoch  44 Update  5600 Cost  1.85622729057e-05
Epoch  44 Update  5610 Cost  2.49584971705e-05
Epoch  44 Update  5620 Cost  7.66159754781e-06
Seen 1998 samples
Epoch  45 Update  5630 Cost  0.000179650484269
Epoch  45 Update  5640 Cost  0.000122703397184
Epoch  45 Update  5650 Cost  0.000408754755232
Epoch  45 Update  5660 Cost  6.54304292573e-05
Epoch  45 Update  5670 Cost  6.8281097977e-05
Epoch  45 Update  5680 Cost  7.48151343222e-05
Epoch  45 Update  5690 Cost  0.000149664481664
Epoch  45 Update  5700 Cost  1.63441436179e-05
Epoch  45 Update  5710 Cost  7.12355958163e-05
Epoch  45 Update  5720 Cost  5.59046034535e-06
Epoch  45 Update  5730 Cost  2.2518377004e-05
Epoch  45 Update  5740 Cost  0.000536441450874
Epoch  45 Update  5750 Cost  0.000296503050717
Seen 1998 samples
Epoch  46 Update  5760 Cost  0.000630917041245
Epoch  46 Update  5770 Cost  1.14946193751e-05
Epoch  46 Update  5780 Cost  1.75235281018e-05
Epoch  46 Update  5790 Cost  7.55371633677e-05
Epoch  46 Update  5800 Cost  3.93902122453e-06
Epoch  46 Update  5810 Cost  4.24521220514e-05
Epoch  46 Update  5820 Cost  5.7427874787e-05
Epoch  46 Update  5830 Cost  2.00697867321e-06
Epoch  46 Update  5840 Cost  0.000270736463592
Epoch  46 Update  5850 Cost  1.54448218472e-05
Epoch  46 Update  5860 Cost  1.41623479257e-05
Epoch  46 Update  5870 Cost  2.67636101153e-05
Seen 1998 samples
Epoch  47 Update  5880 Cost  2.83630759033e-06
Epoch  47 Update  5890 Cost  4.17467876265e-06
Epoch  47 Update  5900 Cost  0.000105156625064
Epoch  47 Update  5910 Cost  2.10904634555e-05
Epoch  47 Update  5920 Cost  1.62925328228e-05
('Train ', 0.0, 'Valid ', 0.16190476190476188, 'Test ', 0.19399999999999995)
Epoch  47 Update  5930 Cost  0.000317024643679
Epoch  47 Update  5940 Cost  6.20738281276e-06
Epoch  47 Update  5950 Cost  7.12508967779e-06
Epoch  47 Update  5960 Cost  4.5383285019e-06
Epoch  47 Update  5970 Cost  4.19479469785e-06
Epoch  47 Update  5980 Cost  0.000292174187625
Epoch  47 Update  5990 Cost  9.60420323348e-05
Epoch  47 Update  6000 Cost  8.31604616478e-06
Seen 1998 samples
Epoch  48 Update  6010 Cost  1.80274955602e-06
Epoch  48 Update  6020 Cost  2.21828139432e-05
Epoch  48 Update  6030 Cost  2.7487189155e-05
Epoch  48 Update  6040 Cost  4.75879782072e-07
Epoch  48 Update  6050 Cost  1.50087869705e-05
Epoch  48 Update  6060 Cost  3.44399653613e-07
Epoch  48 Update  6070 Cost  1.20182861056e-05
Epoch  48 Update  6080 Cost  2.68483036043e-06
Epoch  48 Update  6090 Cost  0.000141283231924
Epoch  48 Update  6100 Cost  1.2974640073e-05
Epoch  48 Update  6110 Cost  8.86628604398e-05
Epoch  48 Update  6120 Cost  4.27703057831e-05
Seen 1998 samples
Epoch  49 Update  6130 Cost  1.17474920002e-05
Epoch  49 Update  6140 Cost  5.29309403234e-05
Epoch  49 Update  6150 Cost  0.000242145929303
Epoch  49 Update  6160 Cost  9.08708980322e-07
Epoch  49 Update  6170 Cost  3.18821578148e-05
Epoch  49 Update  6180 Cost  4.37131996113e-06
Epoch  49 Update  6190 Cost  0.000103360429405
Epoch  49 Update  6200 Cost  9.43259187067e-06
Epoch  49 Update  6210 Cost  1.66589902428e-05
Epoch  49 Update  6220 Cost  1.15288641406e-05
Epoch  49 Update  6230 Cost  2.9545928028e-05
Epoch  49 Update  6240 Cost  2.35908326938e-06
Epoch  49 Update  6250 Cost  6.5142531511e-05
Seen 1998 samples
Epoch  50 Update  6260 Cost  2.26917121847e-05
Epoch  50 Update  6270 Cost  1.5032436771e-05
Epoch  50 Update  6280 Cost  6.46305361964e-05
Epoch  50 Update  6290 Cost  0.00013908419943
('Train ', 0.0, 'Valid ', 0.16190476190476188, 'Test ', 0.18799999999999994)
Epoch  50 Update  6300 Cost  2.37157822975e-05
Epoch  50 Update  6310 Cost  3.84538386997e-05
Epoch  50 Update  6320 Cost  0.000273225288316
Epoch  50 Update  6330 Cost  1.63804040964e-05
Epoch  50 Update  6340 Cost  5.35044294626e-05
Epoch  50 Update  6350 Cost  1.95422577683e-05
Epoch  50 Update  6360 Cost  0.000211670264768
Epoch  50 Update  6370 Cost  8.6467167709e-06
Seen 1998 samples
Epoch  51 Update  6380 Cost  3.68837795128e-05
Epoch  51 Update  6390 Cost  6.13424761824e-06
Epoch  51 Update  6400 Cost  4.29469823864e-05
Epoch  51 Update  6410 Cost  1.60422832366e-05
Epoch  51 Update  6420 Cost  7.39813045519e-05
Epoch  51 Update  6430 Cost  1.3433723115e-05
Epoch  51 Update  6440 Cost  1.12236192947e-05
Epoch  51 Update  6450 Cost  3.63191749795e-05
Epoch  51 Update  6460 Cost  6.67633447558e-05
Epoch  51 Update  6470 Cost  2.28524313277e-05
Epoch  51 Update  6480 Cost  2.40492523e-06
Epoch  51 Update  6490 Cost  1.51446249748e-05
Epoch  51 Update  6500 Cost  1.09952120537e-05
Seen 1998 samples
Epoch  52 Update  6510 Cost  3.19534191911e-05
Epoch  52 Update  6520 Cost  7.03615268764e-06
Epoch  52 Update  6530 Cost  1.49720066808e-05
Epoch  52 Update  6540 Cost  0.000293335506789
Epoch  52 Update  6550 Cost  1.72516852186e-06
Epoch  52 Update  6560 Cost  0.000100739134966
Epoch  52 Update  6570 Cost  2.13899006872e-06
Epoch  52 Update  6580 Cost  1.91475320641e-06
Epoch  52 Update  6590 Cost  7.33501163043e-06
Epoch  52 Update  6600 Cost  5.60513301347e-07
Epoch  52 Update  6610 Cost  3.05439147413e-06
Epoch  52 Update  6620 Cost  3.90483021703e-05
Seen 1998 samples
Epoch  53 Update  6630 Cost  1.09561588234e-05
Epoch  53 Update  6640 Cost  5.35897268436e-07
Epoch  53 Update  6650 Cost  4.73503908701e-06
Epoch  53 Update  6660 Cost  2.99172409666e-06
Saving... Done
('Train ', 0.0, 'Valid ', 0.17142857142857137, 'Test ', 0.17800000000000005)
Epoch  53 Update  6670 Cost  5.58331143192e-05
Epoch  53 Update  6680 Cost  2.27831895108e-06
Epoch  53 Update  6690 Cost  2.46131301971e-06
Epoch  53 Update  6700 Cost  9.28419893579e-07
Epoch  53 Update  6710 Cost  3.36283369824e-06
Epoch  53 Update  6720 Cost  0.000125054751599
Epoch  53 Update  6730 Cost  8.83812160088e-05
Epoch  53 Update  6740 Cost  0.000287295821025
Epoch  53 Update  6750 Cost  3.51669631876e-05
Seen 1998 samples
Epoch  54 Update  6760 Cost  0.00015070459368
Epoch  54 Update  6770 Cost  0.000259289430721
Epoch  54 Update  6780 Cost  1.57499768961e-05
Epoch  54 Update  6790 Cost  2.11651636449e-06
Epoch  54 Update  6800 Cost  3.88796849245e-05
Epoch  54 Update  6810 Cost  2.79882217272e-05
Epoch  54 Update  6820 Cost  2.4160342941e-05
Epoch  54 Update  6830 Cost  8.8390783131e-06
Epoch  54 Update  6840 Cost  9.45397633321e-05
Epoch  54 Update  6850 Cost  1.50077732092e-05
Epoch  54 Update  6860 Cost  1.42619805223e-05
Epoch  54 Update  6870 Cost  8.2729583782e-05
Seen 1998 samples
Epoch  55 Update  6880 Cost  1.45289018705e-05
Epoch  55 Update  6890 Cost  6.36521029314e-06
Epoch  55 Update  6900 Cost  2.01665718792e-05
Epoch  55 Update  6910 Cost  2.12006622583e-05
Epoch  55 Update  6920 Cost  1.12159442899e-05
Epoch  55 Update  6930 Cost  3.10124664857e-08
Epoch  55 Update  6940 Cost  2.68164633797e-07
Epoch  55 Update  6950 Cost  6.10582301782e-06
Epoch  55 Update  6960 Cost  5.97559437254e-05
Epoch  55 Update  6970 Cost  1.73944701091e-05
Epoch  55 Update  6980 Cost  3.00982013094e-05
Epoch  55 Update  6990 Cost  5.77953397921e-05
Epoch  55 Update  7000 Cost  2.26466427229e-06
Seen 1998 samples
Epoch  56 Update  7010 Cost  2.10094406273e-06
Epoch  56 Update  7020 Cost  5.61329229234e-06
Epoch  56 Update  7030 Cost  5.63143884206e-05
('Train ', 0.0, 'Valid ', 0.17142857142857137, 'Test ', 0.18200000000000005)
Epoch  56 Update  7040 Cost  1.98248934182e-05
Epoch  56 Update  7050 Cost  1.83499917104e-05
Epoch  56 Update  7060 Cost  1.29048252933e-05
Epoch  56 Update  7070 Cost  2.43324562553e-05
Epoch  56 Update  7080 Cost  2.83338709902e-05
Epoch  56 Update  7090 Cost  6.20344589882e-06
Epoch  56 Update  7100 Cost  9.07824757143e-05
Epoch  56 Update  7110 Cost  4.7352725251e-06
Epoch  56 Update  7120 Cost  0.000109413657475
Seen 1998 samples
Epoch  57 Update  7130 Cost  1.8755964001e-05
Epoch  57 Update  7140 Cost  3.5705691164e-05
Epoch  57 Update  7150 Cost  0.00138935976333
Epoch  57 Update  7160 Cost  5.90039173939e-06
Epoch  57 Update  7170 Cost  9.06740162931e-05
Epoch  57 Update  7180 Cost  5.83222011995e-05
Epoch  57 Update  7190 Cost  4.14454606914e-05
Epoch  57 Update  7200 Cost  0.0044063777725
Epoch  57 Update  7210 Cost  0.00246826364756
Epoch  57 Update  7220 Cost  0.010866258824
Epoch  57 Update  7230 Cost  0.000110280359823
Epoch  57 Update  7240 Cost  0.000119869490433
Epoch  57 Update  7250 Cost  0.000138152140974
Seen 1998 samples
Epoch  58 Update  7260 Cost  0.000174069313417
Epoch  58 Update  7270 Cost  0.000752224430937
Epoch  58 Update  7280 Cost  0.000759140954223
Epoch  58 Update  7290 Cost  0.000855269429027
Epoch  58 Update  7300 Cost  0.000390275190721
Epoch  58 Update  7310 Cost  0.000683760465224
Epoch  58 Update  7320 Cost  0.000134561515716
Epoch  58 Update  7330 Cost  0.0180239168216
Epoch  58 Update  7340 Cost  0.0548374412945
Epoch  58 Update  7350 Cost  0.00290963688797
Epoch  58 Update  7360 Cost  0.00327189001173
Epoch  58 Update  7370 Cost  0.0111885551849
Seen 1998 samples
Epoch  59 Update  7380 Cost  0.000435931429839
Epoch  59 Update  7390 Cost  0.00163418047857
Epoch  59 Update  7400 Cost  0.000371278559821
('Train ', 0.0, 'Valid ', 0.15238095238095239, 'Test ', 0.18000000000000005)
Epoch  59 Update  7410 Cost  0.000278162966276
Epoch  59 Update  7420 Cost  0.000292207881355
Epoch  59 Update  7430 Cost  0.000954784614974
Epoch  59 Update  7440 Cost  0.000639228021665
Epoch  59 Update  7450 Cost  0.000486310672348
Epoch  59 Update  7460 Cost  0.000573318736361
Epoch  59 Update  7470 Cost  9.17065682141e-05
Epoch  59 Update  7480 Cost  0.000157523717839
Epoch  59 Update  7490 Cost  5.32525193914e-05
Epoch  59 Update  7500 Cost  0.00100512587235
Seen 1998 samples
Epoch  60 Update  7510 Cost  3.97453537923e-05
Epoch  60 Update  7520 Cost  0.000347322768135
Epoch  60 Update  7530 Cost  1.05854533399e-05
Epoch  60 Update  7540 Cost  0.000506676627206
Epoch  60 Update  7550 Cost  0.000207710542743
Epoch  60 Update  7560 Cost  6.91703075475e-05
Epoch  60 Update  7570 Cost  8.14126265912e-05
Epoch  60 Update  7580 Cost  4.63972495807e-05
Epoch  60 Update  7590 Cost  7.00657230665e-05
Epoch  60 Update  7600 Cost  4.68159618024e-05
Epoch  60 Update  7610 Cost  0.000265861729508
Epoch  60 Update  7620 Cost  0.000145883612535
Seen 1998 samples
Epoch  61 Update  7630 Cost  0.000293255862797
Epoch  61 Update  7640 Cost  0.000602521061348
Epoch  61 Update  7650 Cost  0.000268278925362
Epoch  61 Update  7660 Cost  4.20143053131e-05
Epoch  61 Update  7670 Cost  1.8261107654e-06
Epoch  61 Update  7680 Cost  7.09952250001e-06
Epoch  61 Update  7690 Cost  1.08104218898e-06
Epoch  61 Update  7700 Cost  7.75295678857e-07
Epoch  61 Update  7710 Cost  6.37992665528e-05
Epoch  61 Update  7720 Cost  0.00041820530012
Epoch  61 Update  7730 Cost  1.41618022722e-05
Epoch  61 Update  7740 Cost  0.000116632915117
Epoch  61 Update  7750 Cost  0.000848963639895
Seen 1998 samples
Epoch  62 Update  7760 Cost  0.000176897598463
Epoch  62 Update  7770 Cost  4.90913792069e-05
Saving... Done
('Train ', 0.0, 'Valid ', 0.16190476190476188, 'Test ', 0.19599999999999995)
Epoch  62 Update  7780 Cost  1.55886366797e-05
Epoch  62 Update  7790 Cost  0.000223635024967
Epoch  62 Update  7800 Cost  4.82187976932e-06
Epoch  62 Update  7810 Cost  0.000148148826255
Epoch  62 Update  7820 Cost  7.67138022449e-06
Epoch  62 Update  7830 Cost  0.000156096187473
Epoch  62 Update  7840 Cost  0.000348414622438
Epoch  62 Update  7850 Cost  0.000130861924362
Epoch  62 Update  7860 Cost  8.51555883317e-05
Epoch  62 Update  7870 Cost  3.1557418484e-05
Seen 1998 samples
Epoch  63 Update  7880 Cost  1.21200389855e-05
Epoch  63 Update  7890 Cost  1.30798208384e-05
Epoch  63 Update  7900 Cost  4.55324748144e-06
Epoch  63 Update  7910 Cost  2.36430885655e-06
Epoch  63 Update  7920 Cost  0.00013521220317
Epoch  63 Update  7930 Cost  0.000224514114807
Epoch  63 Update  7940 Cost  3.69329525151e-05
Epoch  63 Update  7950 Cost  4.77779504903e-05
Epoch  63 Update  7960 Cost  4.83940273486e-06
Epoch  63 Update  7970 Cost  5.41835833088e-05
Epoch  63 Update  7980 Cost  0.000113163055797
Epoch  63 Update  7990 Cost  5.08886302822e-05
Epoch  63 Update  8000 Cost  4.00895346565e-06
Seen 1998 samples
Epoch  64 Update  8010 Cost  0.000606255675365
Epoch  64 Update  8020 Cost  6.11708627963e-06
Epoch  64 Update  8030 Cost  0.000129069101081
Epoch  64 Update  8040 Cost  1.78661412441e-05
Epoch  64 Update  8050 Cost  3.11893974697e-05
Epoch  64 Update  8060 Cost  2.03095341524e-05
Epoch  64 Update  8070 Cost  2.56420489611e-05
Epoch  64 Update  8080 Cost  6.63256244694e-06
Epoch  64 Update  8090 Cost  2.77176701083e-05
Epoch  64 Update  8100 Cost  9.15444005568e-06
Epoch  64 Update  8110 Cost  1.34492169363e-05
Epoch  64 Update  8120 Cost  5.93797093859e-07
Seen 1998 samples
Epoch  65 Update  8130 Cost  9.40618238012e-05
Epoch  65 Update  8140 Cost  0.000178388353774
('Train ', 0.0, 'Valid ', 0.16190476190476188, 'Test ', 0.18400000000000005)
Epoch  65 Update  8150 Cost  1.25725220674e-05
Epoch  65 Update  8160 Cost  4.02409835224e-06
Epoch  65 Update  8170 Cost  2.36918048141e-05
Epoch  65 Update  8180 Cost  6.04758877831e-05
Epoch  65 Update  8190 Cost  1.37239248983e-05
Epoch  65 Update  8200 Cost  0.00025715171123
Epoch  65 Update  8210 Cost  0.000113435598572
Epoch  65 Update  8220 Cost  1.99616101214e-06
Epoch  65 Update  8230 Cost  3.89197453186e-05
Epoch  65 Update  8240 Cost  8.80289854258e-06
Epoch  65 Update  8250 Cost  3.13802528843e-05
Seen 1998 samples
Epoch  66 Update  8260 Cost  6.95186882126e-06
Epoch  66 Update  8270 Cost  6.9659970536e-06
Epoch  66 Update  8280 Cost  0.000312086292266
Epoch  66 Update  8290 Cost  7.87397679339e-06
Epoch  66 Update  8300 Cost  9.8506144259e-05
Epoch  66 Update  8310 Cost  2.36780823608e-05
Epoch  66 Update  8320 Cost  0.000166401220026
Epoch  66 Update  8330 Cost  2.86171136285e-05
Epoch  66 Update  8340 Cost  0.000392864939433
Epoch  66 Update  8350 Cost  2.91388410828e-05
Epoch  66 Update  8360 Cost  2.68800126992e-05
Epoch  66 Update  8370 Cost  0.000137574016342
Seen 1998 samples
Epoch  67 Update  8380 Cost  2.55366073159e-05
Epoch  67 Update  8390 Cost  5.99546775073e-05
Epoch  67 Update  8400 Cost  8.66104843412e-05
Epoch  67 Update  8410 Cost  4.37692088129e-06
Epoch  67 Update  8420 Cost  9.99387999634e-06
Epoch  67 Update  8430 Cost  5.78183674507e-06
Epoch  67 Update  8440 Cost  4.0863801508e-05
Epoch  67 Update  8450 Cost  0.000109130222243
Epoch  67 Update  8460 Cost  3.34976040643e-05
Epoch  67 Update  8470 Cost  1.32107113826e-05
Epoch  67 Update  8480 Cost  1.54956191722e-05
Epoch  67 Update  8490 Cost  0.000264882613609
Epoch  67 Update  8500 Cost  1.29320466909e-05
Seen 1998 samples
Epoch  68 Update  8510 Cost  7.73634363946e-05
('Train ', 0.0, 'Valid ', 0.15238095238095239, 'Test ', 0.19199999999999995)
Epoch  68 Update  8520 Cost  8.92223481049e-05
Epoch  68 Update  8530 Cost  0.000713380179428
Epoch  68 Update  8540 Cost  2.53120846768e-06
Epoch  68 Update  8550 Cost  2.14983601251e-05
Epoch  68 Update  8560 Cost  0.000176506545978
Epoch  68 Update  8570 Cost  1.88468991659e-05
Epoch  68 Update  8580 Cost  2.69367406976e-05
Epoch  68 Update  8590 Cost  2.112318077e-05
Epoch  68 Update  8600 Cost  7.73451720728e-05
Epoch  68 Update  8610 Cost  7.21226325187e-06
Epoch  68 Update  8620 Cost  2.8430757178e-05
Seen 1998 samples
Epoch  69 Update  8630 Cost  1.37905897101e-05
Epoch  69 Update  8640 Cost  4.56180767504e-05
Epoch  69 Update  8650 Cost  6.67937873797e-06
Epoch  69 Update  8660 Cost  6.70215032005e-06
Epoch  69 Update  8670 Cost  1.37856931698e-05
Epoch  69 Update  8680 Cost  0.000193764924362
Epoch  69 Update  8690 Cost  7.89516601829e-06
Epoch  69 Update  8700 Cost  1.65602103778e-05
Epoch  69 Update  8710 Cost  1.65962060664e-05
Epoch  69 Update  8720 Cost  0.000399629093029
Epoch  69 Update  8730 Cost  2.29804494778e-05
Epoch  69 Update  8740 Cost  2.92503878844e-05
Epoch  69 Update  8750 Cost  5.78355840436e-05
Seen 1998 samples
Epoch  70 Update  8760 Cost  2.93177760691e-05
Epoch  70 Update  8770 Cost  1.71031627025e-05
Epoch  70 Update  8780 Cost  1.5726000058e-05
Epoch  70 Update  8790 Cost  4.88269711058e-05
Epoch  70 Update  8800 Cost  7.60395903535e-06
Epoch  70 Update  8810 Cost  3.65583235719e-05
Epoch  70 Update  8820 Cost  1.41135429949e-06
Epoch  70 Update  8830 Cost  1.81975169645e-05
Epoch  70 Update  8840 Cost  2.9066441525e-05
Epoch  70 Update  8850 Cost  2.50419392878e-05
Epoch  70 Update  8860 Cost  0.000180290767203
Epoch  70 Update  8870 Cost  7.90116280922e-06
Seen 1998 samples
Epoch  71 Update  8880 Cost  4.57536178888e-05
Saving... Done
('Train ', 0.0, 'Valid ', 0.15238095238095239, 'Test ', 0.20999999999999996)
Epoch  71 Update  8890 Cost  1.73454804019e-05
Epoch  71 Update  8900 Cost  3.26374560779e-05
Epoch  71 Update  8910 Cost  8.04789431388e-05
Epoch  71 Update  8920 Cost  5.98489453545e-07
Epoch  71 Update  8930 Cost  1.90702469567e-05
Epoch  71 Update  8940 Cost  4.70805183751e-05
Epoch  71 Update  8950 Cost  1.53814962606e-05
Epoch  71 Update  8960 Cost  1.78222680233e-05
Epoch  71 Update  8970 Cost  4.95006853365e-05
Epoch  71 Update  8980 Cost  6.01336477321e-06
Epoch  71 Update  8990 Cost  3.32035911741e-06
Epoch  71 Update  9000 Cost  0.000245993853379
Seen 1998 samples
Epoch  72 Update  9010 Cost  1.39337624753e-05
Epoch  72 Update  9020 Cost  0.000132957004733
Epoch  72 Update  9030 Cost  1.8029718192e-05
Epoch  72 Update  9040 Cost  2.18678250895e-05
Epoch  72 Update  9050 Cost  3.26844151199e-06
Epoch  72 Update  9060 Cost  0.000254950598432
Epoch  72 Update  9070 Cost  8.51430388431e-05
Epoch  72 Update  9080 Cost  0.00020655701801
Epoch  72 Update  9090 Cost  2.3433307744e-05
Epoch  72 Update  9100 Cost  8.79850562416e-05
Epoch  72 Update  9110 Cost  5.89928645461e-05
Epoch  72 Update  9120 Cost  9.47841504987e-07
Seen 1998 samples
Epoch  73 Update  9130 Cost  8.64391327523e-05
Epoch  73 Update  9140 Cost  4.52583383829e-06
Epoch  73 Update  9150 Cost  6.40571332353e-05
Epoch  73 Update  9160 Cost  5.75442429771e-06
Epoch  73 Update  9170 Cost  0.000149376370859
Epoch  73 Update  9180 Cost  1.53661559095e-05
Epoch  73 Update  9190 Cost  4.23631286116e-06
Epoch  73 Update  9200 Cost  8.27035388393e-06
Epoch  73 Update  9210 Cost  7.27575816834e-06
Epoch  73 Update  9220 Cost  1.02341123191e-05
Epoch  73 Update  9230 Cost  4.49132818701e-05
Epoch  73 Update  9240 Cost  2.56076994619e-05
Epoch  73 Update  9250 Cost  8.7154855619e-05
('Train ', 0.0, 'Valid ', 0.15238095238095239, 'Test ', 0.19199999999999995)
Seen 1998 samples
Epoch  74 Update  9260 Cost  6.50947237927e-05
Epoch  74 Update  9270 Cost  3.36896015208e-06
Epoch  74 Update  9280 Cost  2.40782875698e-06
Epoch  74 Update  9290 Cost  5.4396074903e-05
Epoch  74 Update  9300 Cost  9.47411152394e-06
Epoch  74 Update  9310 Cost  2.05777217472e-05
Epoch  74 Update  9320 Cost  6.31179050997e-06
Epoch  74 Update  9330 Cost  6.24200617013e-06
Epoch  74 Update  9340 Cost  2.30012017724e-05
Epoch  74 Update  9350 Cost  6.12316792878e-05
Epoch  74 Update  9360 Cost  4.12499714276e-07
Epoch  74 Update  9370 Cost  4.15619200689e-05
Seen 1998 samples
Epoch  75 Update  9380 Cost  2.08628550788e-06
Epoch  75 Update  9390 Cost  2.25180692888e-05
Epoch  75 Update  9400 Cost  3.55719190023e-05
Epoch  75 Update  9410 Cost  1.03755374012e-05
Epoch  75 Update  9420 Cost  4.56971034408e-05
Epoch  75 Update  9430 Cost  1.17964024415e-06
Epoch  75 Update  9440 Cost  0.0001137565694
Epoch  75 Update  9450 Cost  3.3465284784e-06
Epoch  75 Update  9460 Cost  2.75154302773e-06
Epoch  75 Update  9470 Cost  3.22313281081e-07
Epoch  75 Update  9480 Cost  0.000137065577634
Epoch  75 Update  9490 Cost  4.13879446324e-07
Epoch  75 Update  9500 Cost  0.00010643776122
Seen 1998 samples
Epoch  76 Update  9510 Cost  9.1324195181e-05
Epoch  76 Update  9520 Cost  4.49612262473e-05
Epoch  76 Update  9530 Cost  1.56719797722e-05
Epoch  76 Update  9540 Cost  1.38493008219e-05
Epoch  76 Update  9550 Cost  3.97277830479e-07
Epoch  76 Update  9560 Cost  2.48532089491e-05
Epoch  76 Update  9570 Cost  2.98021618533e-05
Epoch  76 Update  9580 Cost  4.79911708747e-06
Epoch  76 Update  9590 Cost  1.14860784204e-06
Epoch  76 Update  9600 Cost  3.31064104438e-05
Epoch  76 Update  9610 Cost  9.95601328121e-06
Epoch  76 Update  9620 Cost  3.12418435086e-06
('Train ', 0.0, 'Valid ', 0.15238095238095239, 'Test ', 0.19399999999999995)
Seen 1998 samples
Epoch  77 Update  9630 Cost  6.56733585273e-05
Epoch  77 Update  9640 Cost  2.8361205527e-05
Epoch  77 Update  9650 Cost  7.32676703661e-05
Epoch  77 Update  9660 Cost  1.29397250739e-05
Epoch  77 Update  9670 Cost  1.13611347051e-05
Epoch  77 Update  9680 Cost  8.2311151657e-05
Epoch  77 Update  9690 Cost  0.000353098903166
Epoch  77 Update  9700 Cost  4.1643020287e-06
Epoch  77 Update  9710 Cost  2.70658780325e-05
Epoch  77 Update  9720 Cost  2.75530367767e-05
Epoch  77 Update  9730 Cost  1.14162206423e-06
Epoch  77 Update  9740 Cost  3.46599877899e-05
Epoch  77 Update  9750 Cost  2.2020711759e-05
Seen 1998 samples
Epoch  78 Update  9760 Cost  7.22330134205e-06
Epoch  78 Update  9770 Cost  2.28763623411e-05
Epoch  78 Update  9780 Cost  3.84347444735e-05
Epoch  78 Update  9790 Cost  4.88104599622e-06
Epoch  78 Update  9800 Cost  3.49250222813e-05
Epoch  78 Update  9810 Cost  5.58541941299e-05
Epoch  78 Update  9820 Cost  6.284957469e-06
Epoch  78 Update  9830 Cost  5.67509933841e-06
Epoch  78 Update  9840 Cost  4.88104873201e-06
Epoch  78 Update  9850 Cost  5.42273197325e-06
Epoch  78 Update  9860 Cost  6.00016313147e-05
Epoch  78 Update  9870 Cost  3.19581463419e-05
Seen 1998 samples
Epoch  79 Update  9880 Cost  4.60844251547e-05
Epoch  79 Update  9890 Cost  5.90100904548e-07
Epoch  79 Update  9900 Cost  1.0142244854e-05
Epoch  79 Update  9910 Cost  9.47684963163e-05
Epoch  79 Update  9920 Cost  1.00056958716e-05
Epoch  79 Update  9930 Cost  1.50773818418e-05
Epoch  79 Update  9940 Cost  0.000184856066661
Epoch  79 Update  9950 Cost  3.14717724462e-05
Epoch  79 Update  9960 Cost  1.41126475019e-06
Epoch  79 Update  9970 Cost  6.45780873086e-06
Epoch  79 Update  9980 Cost  9.32308201792e-07
Epoch  79 Update  9990 Cost  1.77769763276e-05
Saving... Done
('Train ', 0.0, 'Valid ', 0.15238095238095239, 'Test ', 0.18799999999999994)
Epoch  79 Update  10000 Cost  2.41991732486e-05
Seen 1998 samples
Epoch  80 Update  10010 Cost  2.5543627621e-05
Epoch  80 Update  10020 Cost  3.63079176754e-07
Epoch  80 Update  10030 Cost  1.65307526387e-06
Epoch  80 Update  10040 Cost  8.47314500292e-06
Epoch  80 Update  10050 Cost  1.29375672416e-05
Epoch  80 Update  10060 Cost  5.8466095229e-06
Epoch  80 Update  10070 Cost  5.22057759932e-05
Epoch  80 Update  10080 Cost  1.09263509166e-06
Epoch  80 Update  10090 Cost  1.39118987452e-05
Epoch  80 Update  10100 Cost  3.51442406289e-05
Epoch  80 Update  10110 Cost  5.25609612492e-05
Epoch  80 Update  10120 Cost  2.36112376048e-05
Seen 1998 samples
Epoch  81 Update  10130 Cost  3.9679177598e-05
Epoch  81 Update  10140 Cost  7.9859351535e-06
Epoch  81 Update  10150 Cost  5.51716833921e-05
Epoch  81 Update  10160 Cost  2.46342434308e-05
Epoch  81 Update  10170 Cost  1.60174530386e-06
Epoch  81 Update  10180 Cost  1.68286789398e-06
Epoch  81 Update  10190 Cost  1.88550692236e-05
Epoch  81 Update  10200 Cost  1.18270872774e-06
Epoch  81 Update  10210 Cost  7.12517188901e-06
Epoch  81 Update  10220 Cost  1.44011639494e-05
Epoch  81 Update  10230 Cost  1.80024338161e-05
Epoch  81 Update  10240 Cost  3.02387127723e-06
Epoch  81 Update  10250 Cost  3.24849629373e-06
Seen 1998 samples
Epoch  82 Update  10260 Cost  4.1519803326e-06
Epoch  82 Update  10270 Cost  1.53901473089e-05
Epoch  82 Update  10280 Cost  1.04548665573e-05
Epoch  82 Update  10290 Cost  2.44163259286e-06
Epoch  82 Update  10300 Cost  9.75120891206e-06
Epoch  82 Update  10310 Cost  1.5966524593e-05
Epoch  82 Update  10320 Cost  1.38770833354e-05
Epoch  82 Update  10330 Cost  1.49278578496e-05
Epoch  82 Update  10340 Cost  3.40568483155e-05
Epoch  82 Update  10350 Cost  1.50201463009e-05
Epoch  82 Update  10360 Cost  2.59503756794e-05
('Train ', 0.0, 'Valid ', 0.15238095238095239, 'Test ', 0.19999999999999996)
Epoch  82 Update  10370 Cost  7.78592770131e-06
Seen 1998 samples
Epoch  83 Update  10380 Cost  0.000112735130432
Epoch  83 Update  10390 Cost  0.000145344655395
Epoch  83 Update  10400 Cost  3.18135652381e-05
Epoch  83 Update  10410 Cost  1.12868431184e-06
Epoch  83 Update  10420 Cost  8.45976739462e-06
Epoch  83 Update  10430 Cost  1.99485687431e-06
Epoch  83 Update  10440 Cost  2.73909616087e-05
Epoch  83 Update  10450 Cost  6.82112968356e-05
Epoch  83 Update  10460 Cost  2.44026846768e-06
Epoch  83 Update  10470 Cost  5.48369442149e-06
Epoch  83 Update  10480 Cost  3.42743816747e-05
Epoch  83 Update  10490 Cost  1.10351222129e-05
Epoch  83 Update  10500 Cost  3.95616800564e-06
Seen 1998 samples
Epoch  84 Update  10510 Cost  5.60223462323e-06
Epoch  84 Update  10520 Cost  2.62088904283e-06
Epoch  84 Update  10530 Cost  6.24239429412e-05
Epoch  84 Update  10540 Cost  2.02004339267e-05
Epoch  84 Update  10550 Cost  4.93296493178e-05
Epoch  84 Update  10560 Cost  0.000138906068449
Epoch  84 Update  10570 Cost  1.71802841131e-05
Epoch  84 Update  10580 Cost  1.10377470325e-05
Epoch  84 Update  10590 Cost  5.52471610253e-06
Epoch  84 Update  10600 Cost  1.40209144111e-05
Epoch  84 Update  10610 Cost  3.14393194324e-07
Epoch  84 Update  10620 Cost  2.2821027102e-06
Seen 1998 samples
Epoch  85 Update  10630 Cost  4.62084050705e-06
Epoch  85 Update  10640 Cost  1.32619793581e-06
Epoch  85 Update  10650 Cost  1.9326072062e-06
Epoch  85 Update  10660 Cost  5.77893031884e-06
Epoch  85 Update  10670 Cost  0.00034012694202
Epoch  85 Update  10680 Cost  4.41918197463e-06
Epoch  85 Update  10690 Cost  6.97339924331e-05
Epoch  85 Update  10700 Cost  1.64317770722e-05
Epoch  85 Update  10710 Cost  8.64447208475e-06
Epoch  85 Update  10720 Cost  4.37637836895e-05
Epoch  85 Update  10730 Cost  1.03126755707e-05
('Train ', 0.0, 'Valid ', 0.15238095238095239, 'Test ', 0.19999999999999996)
Epoch  85 Update  10740 Cost  1.41173516601e-07
Epoch  85 Update  10750 Cost  5.77044517999e-05
Seen 1998 samples
Epoch  86 Update  10760 Cost  4.88091650586e-06
Epoch  86 Update  10770 Cost  5.24291419231e-05
Epoch  86 Update  10780 Cost  3.09070349487e-05
Epoch  86 Update  10790 Cost  4.88765822863e-06
Epoch  86 Update  10800 Cost  1.18907235141e-06
Epoch  86 Update  10810 Cost  8.9476735555e-05
Epoch  86 Update  10820 Cost  5.28932107841e-05
Epoch  86 Update  10830 Cost  6.83489771417e-05
Epoch  86 Update  10840 Cost  7.78224168081e-06
Epoch  86 Update  10850 Cost  1.34075934895e-06
Epoch  86 Update  10860 Cost  5.51475493256e-06
Epoch  86 Update  10870 Cost  1.54801981026e-05
Seen 1998 samples
Epoch  87 Update  10880 Cost  0.000175020515595
Epoch  87 Update  10890 Cost  6.02176705075e-06
Epoch  87 Update  10900 Cost  2.14453235855e-06
Epoch  87 Update  10910 Cost  1.69306727257e-05
Epoch  87 Update  10920 Cost  4.5709368295e-05
Epoch  87 Update  10930 Cost  3.85815729272e-06
Epoch  87 Update  10940 Cost  3.85079398164e-06
Epoch  87 Update  10950 Cost  3.68872316579e-05
Epoch  87 Update  10960 Cost  7.02149154014e-06
Epoch  87 Update  10970 Cost  1.71999045669e-05
Epoch  87 Update  10980 Cost  1.69711487834e-05
Epoch  87 Update  10990 Cost  4.63558808555e-06
Epoch  87 Update  11000 Cost  5.2024583012e-06
Seen 1998 samples
Epoch  88 Update  11010 Cost  3.36257827226e-05
Epoch  88 Update  11020 Cost  1.60458872249e-05
Epoch  88 Update  11030 Cost  2.9803859962e-07
Epoch  88 Update  11040 Cost  3.52475969987e-06
Epoch  88 Update  11050 Cost  9.3663161071e-05
Epoch  88 Update  11060 Cost  6.28417681065e-06
Epoch  88 Update  11070 Cost  7.2423015735e-06
Epoch  88 Update  11080 Cost  1.3141089032e-05
Epoch  88 Update  11090 Cost  0.000227183647148
Epoch  88 Update  11100 Cost  1.78234648399e-06
Saving... Done
('Train ', 0.0, 'Valid ', 0.15238095238095239, 'Test ', 0.19999999999999996)
Epoch  88 Update  11110 Cost  1.0528396674e-05
Epoch  88 Update  11120 Cost  1.61905549511e-06
Seen 1998 samples
Epoch  89 Update  11130 Cost  2.82910159918e-06
Epoch  89 Update  11140 Cost  1.18351490927e-06
Epoch  89 Update  11150 Cost  3.70191135968e-06
Epoch  89 Update  11160 Cost  4.45535933704e-05
Epoch  89 Update  11170 Cost  4.90280235173e-05
Epoch  89 Update  11180 Cost  8.68582585264e-07
Epoch  89 Update  11190 Cost  8.58134547472e-07
Epoch  89 Update  11200 Cost  8.6321967691e-07
Epoch  89 Update  11210 Cost  5.98547506504e-06
Epoch  89 Update  11220 Cost  3.359856667e-05
Epoch  89 Update  11230 Cost  1.35321032563e-05
Epoch  89 Update  11240 Cost  2.49987085236e-05
Epoch  89 Update  11250 Cost  9.79947744178e-05
Seen 1998 samples
Epoch  90 Update  11260 Cost  7.18747885464e-06
Epoch  90 Update  11270 Cost  7.28665123005e-06
Epoch  90 Update  11280 Cost  9.37484056538e-06
Epoch  90 Update  11290 Cost  2.79995436948e-05
Epoch  90 Update  11300 Cost  1.78268218558e-06
Epoch  90 Update  11310 Cost  3.09621570299e-06
Epoch  90 Update  11320 Cost  5.85784482842e-06
Epoch  90 Update  11330 Cost  6.94754303033e-05
Epoch  90 Update  11340 Cost  2.79267746772e-06
Epoch  90 Update  11350 Cost  1.74105973721e-06
Epoch  90 Update  11360 Cost  6.79470852878e-06
Epoch  90 Update  11370 Cost  2.23102844157e-05
Seen 1998 samples
Epoch  91 Update  11380 Cost  3.42799867264e-06
Epoch  91 Update  11390 Cost  3.93563385362e-05
Epoch  91 Update  11400 Cost  7.8347006784e-05
Epoch  91 Update  11410 Cost  1.17597901221e-05
Epoch  91 Update  11420 Cost  3.97098459605e-06
Epoch  91 Update  11430 Cost  6.23777925411e-07
Epoch  91 Update  11440 Cost  1.00418060806e-05
Epoch  91 Update  11450 Cost  4.98941329052e-06
Epoch  91 Update  11460 Cost  3.14539984935e-06
Epoch  91 Update  11470 Cost  7.83357084744e-05
('Train ', 0.0, 'Valid ', 0.16190476190476188, 'Test ', 0.19399999999999995)
Epoch  91 Update  11480 Cost  1.02015744295e-05
Epoch  91 Update  11490 Cost  6.5607651264e-07
Epoch  91 Update  11500 Cost  9.25494005735e-06
Seen 1998 samples
Epoch  92 Update  11510 Cost  5.52037191736e-05
Epoch  92 Update  11520 Cost  3.93761958625e-05
Epoch  92 Update  11530 Cost  1.25499040518e-06
Epoch  92 Update  11540 Cost  6.73830634326e-07
Epoch  92 Update  11550 Cost  1.0032760883e-05
Epoch  92 Update  11560 Cost  6.88806882404e-05
Epoch  92 Update  11570 Cost  7.91323985458e-07
Epoch  92 Update  11580 Cost  1.61766508887e-06
Epoch  92 Update  11590 Cost  6.46905864647e-06
Epoch  92 Update  11600 Cost  1.36950004169e-05
Epoch  92 Update  11610 Cost  1.3448662411e-06
Epoch  92 Update  11620 Cost  1.68641972716e-06
Seen 1998 samples
Epoch  93 Update  11630 Cost  3.02237388625e-06
Epoch  93 Update  11640 Cost  1.12890117665e-06
Epoch  93 Update  11650 Cost  1.86946543355e-05
Epoch  93 Update  11660 Cost  2.0321641889e-05
Epoch  93 Update  11670 Cost  2.25102576756e-06
Epoch  93 Update  11680 Cost  5.01958028892e-06
Epoch  93 Update  11690 Cost  2.55069914142e-05
Epoch  93 Update  11700 Cost  5.98347029095e-10
Epoch  93 Update  11710 Cost  8.82038889621e-06
Epoch  93 Update  11720 Cost  4.25080595568e-06
Epoch  93 Update  11730 Cost  6.83317850587e-05
Epoch  93 Update  11740 Cost  3.83291725431e-06
Epoch  93 Update  11750 Cost  9.52221585682e-06
Seen 1998 samples
Epoch  94 Update  11760 Cost  6.27795525942e-06
Epoch  94 Update  11770 Cost  3.9552019305e-06
Epoch  94 Update  11780 Cost  1.39480786214e-05
Epoch  94 Update  11790 Cost  6.4153419877e-05
Epoch  94 Update  11800 Cost  4.61139125e-07
Epoch  94 Update  11810 Cost  1.96670206996e-05
Epoch  94 Update  11820 Cost  2.86188266954e-06
Epoch  94 Update  11830 Cost  2.4327565701e-07
Epoch  94 Update  11840 Cost  4.79008639534e-06
('Train ', 0.0, 'Valid ', 0.16190476190476188, 'Test ', 0.19599999999999995)
Epoch  94 Update  11850 Cost  5.43758898889e-06
Epoch  94 Update  11860 Cost  4.40834864662e-07
Epoch  94 Update  11870 Cost  1.32763993953e-05
Seen 1998 samples
Epoch  95 Update  11880 Cost  3.58963588143e-05
Epoch  95 Update  11890 Cost  1.61794612132e-05
Epoch  95 Update  11900 Cost  2.36029814161e-05
Epoch  95 Update  11910 Cost  6.90665298511e-07
Epoch  95 Update  11920 Cost  1.28802884557e-06
Epoch  95 Update  11930 Cost  7.40853585012e-06
Epoch  95 Update  11940 Cost  5.46428569928e-06
Epoch  95 Update  11950 Cost  1.17828989702e-05
Epoch  95 Update  11960 Cost  2.08622266561e-06
Epoch  95 Update  11970 Cost  1.70310474205e-06
Epoch  95 Update  11980 Cost  5.8881146322e-07
Epoch  95 Update  11990 Cost  3.04602680411e-05
Epoch  95 Update  12000 Cost  6.71087044266e-08
Seen 1998 samples
Epoch  96 Update  12010 Cost  1.25996683846e-05
Epoch  96 Update  12020 Cost  5.09962440336e-06
Epoch  96 Update  12030 Cost  1.28239293619e-05
Epoch  96 Update  12040 Cost  7.54342478024e-07
Epoch  96 Update  12050 Cost  2.07211769542e-05
Epoch  96 Update  12060 Cost  1.76960023237e-06
Epoch  96 Update  12070 Cost  1.0326390298e-05
Epoch  96 Update  12080 Cost  1.28735182034e-06
Epoch  96 Update  12090 Cost  0.000316938038011
Epoch  96 Update  12100 Cost  2.44047361468e-06
Epoch  96 Update  12110 Cost  3.68078081547e-05
Epoch  96 Update  12120 Cost  1.80418937348e-05
Seen 1998 samples
Epoch  97 Update  12130 Cost  4.18933312155e-05
Epoch  97 Update  12140 Cost  5.92881962499e-06
Epoch  97 Update  12150 Cost  2.25462256408e-06
Epoch  97 Update  12160 Cost  6.21276096113e-06
Epoch  97 Update  12170 Cost  3.605900954e-06
Epoch  97 Update  12180 Cost  2.39115210915e-06
Epoch  97 Update  12190 Cost  3.82732026694e-05
Epoch  97 Update  12200 Cost  2.13719762953e-05
Epoch  97 Update  12210 Cost  8.82023768636e-07
Saving... Done
('Train ', 0.0, 'Valid ', 0.15238095238095239, 'Test ', 0.19999999999999996)
Epoch  97 Update  12220 Cost  1.86649393829e-07
Epoch  97 Update  12230 Cost  2.20926497097e-05
Epoch  97 Update  12240 Cost  7.91953651377e-07
Epoch  97 Update  12250 Cost  1.79997572699e-07
Seen 1998 samples
Epoch  98 Update  12260 Cost  5.22223534099e-06
Epoch  98 Update  12270 Cost  3.21799340613e-06
Epoch  98 Update  12280 Cost  1.80659327089e-05
Epoch  98 Update  12290 Cost  2.22090194672e-05
Epoch  98 Update  12300 Cost  8.96724627192e-06
Epoch  98 Update  12310 Cost  3.24918740077e-05
Epoch  98 Update  12320 Cost  2.22245147528e-06
Epoch  98 Update  12330 Cost  1.08845986418e-05
Epoch  98 Update  12340 Cost  5.60927522786e-05
Epoch  98 Update  12350 Cost  1.74530160383e-05
Epoch  98 Update  12360 Cost  6.5491045898e-06
Epoch  98 Update  12370 Cost  3.03481481121e-06
Seen 1998 samples
Epoch  99 Update  12380 Cost  1.4844323572e-05
Epoch  99 Update  12390 Cost  2.06030083065e-05
Epoch  99 Update  12400 Cost  2.61269546311e-06
Epoch  99 Update  12410 Cost  6.20547862159e-05
Epoch  99 Update  12420 Cost  1.07276845061e-05
Epoch  99 Update  12430 Cost  1.16339593231e-05
Epoch  99 Update  12440 Cost  2.48821303239e-06
Epoch  99 Update  12450 Cost  3.29468972877e-05
Epoch  99 Update  12460 Cost  1.79363803739e-06
Epoch  99 Update  12470 Cost  9.18978113585e-06
Epoch  99 Update  12480 Cost  2.23659773293e-05
Epoch  99 Update  12490 Cost  2.11587031936e-05
Epoch  99 Update  12500 Cost  5.51961556825e-07
Seen 1998 samples
Epoch  100 Update  12510 Cost  5.09305294204e-06
Epoch  100 Update  12520 Cost  2.54355207083e-06
Epoch  100 Update  12530 Cost  5.82725279029e-06
Epoch  100 Update  12540 Cost  1.81688419009e-06
Epoch  100 Update  12550 Cost  9.76427837354e-07
Epoch  100 Update  12560 Cost  0.000135022793333
Epoch  100 Update  12570 Cost  4.35718136594e-05
Epoch  100 Update  12580 Cost  2.13779126632e-05
('Train ', 0.0, 'Valid ', 0.16190476190476188, 'Test ', 0.20199999999999996)
Epoch  100 Update  12590 Cost  4.75547108316e-05
Epoch  100 Update  12600 Cost  4.14884029873e-06
Epoch  100 Update  12610 Cost  2.34125008217e-05
Epoch  100 Update  12620 Cost  3.83017245874e-06
Seen 1998 samples
Epoch  101 Update  12630 Cost  8.40373679355e-06
Epoch  101 Update  12640 Cost  1.24648873527e-06
Epoch  101 Update  12650 Cost  6.59224812744e-05
Epoch  101 Update  12660 Cost  6.8712112803e-05
Epoch  101 Update  12670 Cost  3.02191155739e-05
Epoch  101 Update  12680 Cost  1.22398931603e-06
Epoch  101 Update  12690 Cost  1.48515264243e-05
Epoch  101 Update  12700 Cost  1.38557672806e-05
Epoch  101 Update  12710 Cost  0.000162905906009
Epoch  101 Update  12720 Cost  1.02585021542e-05
Epoch  101 Update  12730 Cost  1.6235033707e-06
Epoch  101 Update  12740 Cost  1.93910896982e-06
Epoch  101 Update  12750 Cost  1.43743644299e-06
Seen 1998 samples
Epoch  102 Update  12760 Cost  4.06627896839e-06
Epoch  102 Update  12770 Cost  9.83047050913e-07
Epoch  102 Update  12780 Cost  5.77518179808e-06
Epoch  102 Update  12790 Cost  6.69127566076e-07
Epoch  102 Update  12800 Cost  5.78805014259e-05
Epoch  102 Update  12810 Cost  8.76179805384e-06
Epoch  102 Update  12820 Cost  9.63019883095e-06
Epoch  102 Update  12830 Cost  9.29180971928e-07
Epoch  102 Update  12840 Cost  1.24684400468e-05
Epoch  102 Update  12850 Cost  5.64412515136e-07
Epoch  102 Update  12860 Cost  4.70783530275e-07
Epoch  102 Update  12870 Cost  6.03915225444e-06
Seen 1998 samples
Epoch  103 Update  12880 Cost  7.22998692906e-06
Epoch  103 Update  12890 Cost  2.5931486379e-06
Epoch  103 Update  12900 Cost  1.853335182e-06
Epoch  103 Update  12910 Cost  5.67332824123e-06
Epoch  103 Update  12920 Cost  1.24130932389e-06
Epoch  103 Update  12930 Cost  1.80100773588e-06
Epoch  103 Update  12940 Cost  1.05506174659e-06
Epoch  103 Update  12950 Cost  3.15978451836e-05
('Train ', 0.0, 'Valid ', 0.16190476190476188, 'Test ', 0.20199999999999996)
Epoch  103 Update  12960 Cost  3.56115680208e-05
Epoch  103 Update  12970 Cost  8.83505197047e-07
Epoch  103 Update  12980 Cost  1.85755328113e-06
Epoch  103 Update  12990 Cost  5.92419958199e-05
Epoch  103 Update  13000 Cost  8.70658699267e-07
Seen 1998 samples
Epoch  104 Update  13010 Cost  3.73705613944e-06
Epoch  104 Update  13020 Cost  1.28035629798e-06
Epoch  104 Update  13030 Cost  2.64011041937e-06
Epoch  104 Update  13040 Cost  1.94534957582e-06
Epoch  104 Update  13050 Cost  0.000101110913856
Epoch  104 Update  13060 Cost  5.28761910536e-07
Epoch  104 Update  13070 Cost  3.98504338656e-08
Epoch  104 Update  13080 Cost  3.42971789416e-06
Epoch  104 Update  13090 Cost  1.35034824614e-05
Epoch  104 Update  13100 Cost  3.75625336755e-05
Epoch  104 Update  13110 Cost  8.08867789518e-06
Epoch  104 Update  13120 Cost  8.19842519665e-06
Seen 1998 samples
Epoch  105 Update  13130 Cost  5.55988451404e-07
Epoch  105 Update  13140 Cost  6.7187491196e-06
Epoch  105 Update  13150 Cost  1.94951995177e-06
Epoch  105 Update  13160 Cost  3.99677644703e-06
Epoch  105 Update  13170 Cost  5.27231861002e-06
Epoch  105 Update  13180 Cost  2.53351481702e-05
Epoch  105 Update  13190 Cost  1.6008153555e-06
Epoch  105 Update  13200 Cost  5.95693510301e-06
Epoch  105 Update  13210 Cost  2.90606165585e-06
Epoch  105 Update  13220 Cost  2.73015774653e-07
Epoch  105 Update  13230 Cost  9.59294282282e-06
Epoch  105 Update  13240 Cost  4.98692861806e-05
Epoch  105 Update  13250 Cost  1.88127693412e-07
Seen 1998 samples
Epoch  106 Update  13260 Cost  8.59283963047e-06
Epoch  106 Update  13270 Cost  1.29220629352e-05
Epoch  106 Update  13280 Cost  6.25227231347e-06
Epoch  106 Update  13290 Cost  1.93205830581e-05
Epoch  106 Update  13300 Cost  1.09828221298e-06
Epoch  106 Update  13310 Cost  2.25812755229e-06
Epoch  106 Update  13320 Cost  1.2272501738e-06
Saving... Done
('Train ', 0.0, 'Valid ', 0.15238095238095239, 'Test ', 0.20799999999999996)
Epoch  106 Update  13330 Cost  1.11367476254e-06
Epoch  106 Update  13340 Cost  8.04174900643e-05
Epoch  106 Update  13350 Cost  7.64036972669e-05
Epoch  106 Update  13360 Cost  1.70234894836e-06
Epoch  106 Update  13370 Cost  1.03965007096e-05
Seen 1998 samples
Epoch  107 Update  13380 Cost  1.86361432076e-06
Epoch  107 Update  13390 Cost  1.35015703269e-05
Epoch  107 Update  13400 Cost  2.34409785359e-06
Epoch  107 Update  13410 Cost  6.32097540581e-06
Epoch  107 Update  13420 Cost  1.51360755639e-06
Epoch  107 Update  13430 Cost  1.06106536539e-06
Epoch  107 Update  13440 Cost  1.60486771608e-05
Epoch  107 Update  13450 Cost  2.1152489416e-05
Epoch  107 Update  13460 Cost  3.7206670943e-05
Epoch  107 Update  13470 Cost  1.13385119869e-06
Epoch  107 Update  13480 Cost  2.47217732805e-06
Epoch  107 Update  13490 Cost  8.06366857895e-07
Epoch  107 Update  13500 Cost  7.51570050554e-07
Seen 1998 samples
Epoch  108 Update  13510 Cost  1.84189664354e-07
Epoch  108 Update  13520 Cost  7.16251283833e-05
Epoch  108 Update  13530 Cost  6.53927086471e-06
Epoch  108 Update  13540 Cost  7.01431026227e-06
Epoch  108 Update  13550 Cost  1.55074464664e-05
Epoch  108 Update  13560 Cost  4.53972173483e-06
Epoch  108 Update  13570 Cost  3.86044023671e-06
Epoch  108 Update  13580 Cost  2.12591435659e-06
Epoch  108 Update  13590 Cost  1.33264429474e-05
Epoch  108 Update  13600 Cost  3.43564393437e-06
Epoch  108 Update  13610 Cost  3.0119159395e-05
Epoch  108 Update  13620 Cost  8.24855566039e-08
Seen 1998 samples
Epoch  109 Update  13630 Cost  1.22053863772e-05
Epoch  109 Update  13640 Cost  7.50573269161e-05
Epoch  109 Update  13650 Cost  2.53418562124e-05
Epoch  109 Update  13660 Cost  2.26228281671e-06
Epoch  109 Update  13670 Cost  3.197266368e-06
Epoch  109 Update  13680 Cost  1.9856656903e-06
Epoch  109 Update  13690 Cost  1.60427063933e-06
('Train ', 0.0, 'Valid ', 0.16190476190476188, 'Test ', 0.19799999999999995)
Epoch  109 Update  13700 Cost  6.42066481518e-05
Epoch  109 Update  13710 Cost  1.24816680414e-05
Epoch  109 Update  13720 Cost  2.35970832285e-05
Epoch  109 Update  13730 Cost  2.69487456624e-06
Epoch  109 Update  13740 Cost  1.24129408156e-05
Epoch  109 Update  13750 Cost  5.73403154639e-05
Seen 1998 samples
Epoch  110 Update  13760 Cost  8.58346209756e-05
Epoch  110 Update  13770 Cost  4.02095602775e-05
Epoch  110 Update  13780 Cost  3.86704138039e-06
Epoch  110 Update  13790 Cost  5.40023459005e-05
Epoch  110 Update  13800 Cost  1.06050974532e-05
Epoch  110 Update  13810 Cost  7.63299597563e-06
Epoch  110 Update  13820 Cost  4.03998231365e-06
Epoch  110 Update  13830 Cost  1.89459113997e-06
Epoch  110 Update  13840 Cost  2.02508350559e-05
Epoch  110 Update  13850 Cost  2.54438725149e-06
Epoch  110 Update  13860 Cost  3.77805628756e-07
Epoch  110 Update  13870 Cost  1.22191900982e-05
Seen 1998 samples
Epoch  111 Update  13880 Cost  8.11343249909e-05
Epoch  111 Update  13890 Cost  4.60122075115e-05
Epoch  111 Update  13900 Cost  1.38158482613e-06
Epoch  111 Update  13910 Cost  6.91423649057e-06
Epoch  111 Update  13920 Cost  5.82965393563e-05
Epoch  111 Update  13930 Cost  2.05066268967e-05
Epoch  111 Update  13940 Cost  5.94589737987e-06
Epoch  111 Update  13950 Cost  3.22310906186e-07
Epoch  111 Update  13960 Cost  7.5702560476e-06
Epoch  111 Update  13970 Cost  7.59318390952e-09
Epoch  111 Update  13980 Cost  8.47577509918e-05
Epoch  111 Update  13990 Cost  1.26038382863e-05
Epoch  111 Update  14000 Cost  6.26237971163e-07
Seen 1998 samples
Epoch  112 Update  14010 Cost  3.96079272561e-05
Epoch  112 Update  14020 Cost  1.15010844815e-06
Epoch  112 Update  14030 Cost  6.66635173016e-06
Epoch  112 Update  14040 Cost  2.58958711941e-05
Epoch  112 Update  14050 Cost  5.01254712857e-06
Epoch  112 Update  14060 Cost  2.03435143854e-05
('Train ', 0.0, 'Valid ', 0.16190476190476188, 'Test ', 0.19799999999999995)
Epoch  112 Update  14070 Cost  2.54247756091e-05
Epoch  112 Update  14080 Cost  9.68104649458e-05
Epoch  112 Update  14090 Cost  9.01500727327e-07
Epoch  112 Update  14100 Cost  5.25741167117e-06
Epoch  112 Update  14110 Cost  2.33942528342e-07
Epoch  112 Update  14120 Cost  7.16379539179e-06
Seen 1998 samples
Epoch  113 Update  14130 Cost  8.52451169555e-07
Epoch  113 Update  14140 Cost  6.63686732314e-05
Epoch  113 Update  14150 Cost  1.24202832747e-05
Epoch  113 Update  14160 Cost  1.07500636345e-05
Epoch  113 Update  14170 Cost  4.35286493769e-06
Epoch  113 Update  14180 Cost  0.00041628712459
Epoch  113 Update  14190 Cost  3.92633530585e-06
Epoch  113 Update  14200 Cost  4.77067857876e-06
Epoch  113 Update  14210 Cost  7.31946752492e-05
Epoch  113 Update  14220 Cost  4.86403989189e-06
Epoch  113 Update  14230 Cost  1.12346237377e-05
Epoch  113 Update  14240 Cost  4.46228587167e-05
Epoch  113 Update  14250 Cost  5.59507034349e-07
Seen 1998 samples
Epoch  114 Update  14260 Cost  6.38851767603e-05
Epoch  114 Update  14270 Cost  1.91976503993e-06
Epoch  114 Update  14280 Cost  0.000151924628692
Epoch  114 Update  14290 Cost  1.27407568541e-05
Epoch  114 Update  14300 Cost  9.99886820398e-06
Epoch  114 Update  14310 Cost  4.40662312663e-06
Epoch  114 Update  14320 Cost  2.7218374944e-06
Epoch  114 Update  14330 Cost  7.66438521961e-06
Epoch  114 Update  14340 Cost  1.4167731841e-06
Epoch  114 Update  14350 Cost  1.51018322319e-06
Epoch  114 Update  14360 Cost  0.000154933877347
Epoch  114 Update  14370 Cost  2.2018920897e-05
Seen 1998 samples
Epoch  115 Update  14380 Cost  4.28445440362e-06
Epoch  115 Update  14390 Cost  2.14981035242e-05
Epoch  115 Update  14400 Cost  8.78112813889e-06
Epoch  115 Update  14410 Cost  4.28342113138e-07
Epoch  115 Update  14420 Cost  1.37764374315e-05
Epoch  115 Update  14430 Cost  9.6774760214e-07
Saving... Done
('Train ', 0.0, 'Valid ', 0.16190476190476188, 'Test ', 0.20199999999999996)
Epoch  115 Update  14440 Cost  5.90006089782e-06
Epoch  115 Update  14450 Cost  3.38612536805e-05
Epoch  115 Update  14460 Cost  3.40176414411e-05
Epoch  115 Update  14470 Cost  1.50254681671e-06
Epoch  115 Update  14480 Cost  1.89530175594e-06
Epoch  115 Update  14490 Cost  1.8585436674e-06
Epoch  115 Update  14500 Cost  2.51338447101e-07
Seen 1998 samples
Epoch  116 Update  14510 Cost  6.56066187012e-07
Epoch  116 Update  14520 Cost  1.32094869351e-05
Epoch  116 Update  14530 Cost  1.7711221707e-05
Epoch  116 Update  14540 Cost  2.01612215147e-05
Epoch  116 Update  14550 Cost  1.9132210694e-05
Epoch  116 Update  14560 Cost  1.9445450949e-06
Epoch  116 Update  14570 Cost  1.44245013979e-06
Epoch  116 Update  14580 Cost  6.67426173246e-05
Epoch  116 Update  14590 Cost  2.17501750097e-06
Epoch  116 Update  14600 Cost  4.77396596142e-06
Epoch  116 Update  14610 Cost  1.70482628332e-06
Epoch  116 Update  14620 Cost  0.000211133692962
Seen 1998 samples
Epoch  117 Update  14630 Cost  1.21824248273e-06
Epoch  117 Update  14640 Cost  1.05512686676e-05
Epoch  117 Update  14650 Cost  6.47271158652e-06
Epoch  117 Update  14660 Cost  8.86989630856e-05
Epoch  117 Update  14670 Cost  4.39296317866e-05
Epoch  117 Update  14680 Cost  1.9730903678e-05
Epoch  117 Update  14690 Cost  8.30652990482e-07
Epoch  117 Update  14700 Cost  7.13383518814e-06
Epoch  117 Update  14710 Cost  8.51371330616e-07
Epoch  117 Update  14720 Cost  1.16681126496e-06
Epoch  117 Update  14730 Cost  5.81988623506e-05
Epoch  117 Update  14740 Cost  5.60885150462e-06
Epoch  117 Update  14750 Cost  7.29763314799e-05
Seen 1998 samples
Epoch  118 Update  14760 Cost  8.83232057481e-06
Epoch  118 Update  14770 Cost  2.51072923505e-05
Epoch  118 Update  14780 Cost  1.21291777595e-05
Epoch  118 Update  14790 Cost  7.25435369551e-06
Epoch  118 Update  14800 Cost  1.92792758878e-06
('Train ', 0.0, 'Valid ', 0.16190476190476188, 'Test ', 0.20199999999999996)
Epoch  118 Update  14810 Cost  4.87056929506e-06
Epoch  118 Update  14820 Cost  3.42421610978e-05
Epoch  118 Update  14830 Cost  0.000262589334984
Epoch  118 Update  14840 Cost  7.2323672054e-07
Epoch  118 Update  14850 Cost  1.92634933798e-06
Epoch  118 Update  14860 Cost  1.79638183921e-06
Epoch  118 Update  14870 Cost  6.34049208256e-06
Seen 1998 samples
Epoch  119 Update  14880 Cost  7.46099193696e-06
Epoch  119 Update  14890 Cost  5.33423923698e-06
Epoch  119 Update  14900 Cost  4.30634436708e-06
Epoch  119 Update  14910 Cost  1.22640178103e-06
Epoch  119 Update  14920 Cost  2.5045508041e-06
Epoch  119 Update  14930 Cost  2.64267000826e-05
Epoch  119 Update  14940 Cost  8.51003082447e-05
Epoch  119 Update  14950 Cost  3.7715937421e-06
Epoch  119 Update  14960 Cost  5.30736423947e-05
Epoch  119 Update  14970 Cost  3.10848957766e-07
Epoch  119 Update  14980 Cost  2.01680854153e-06
Epoch  119 Update  14990 Cost  4.6961737101e-07
Epoch  119 Update  15000 Cost  7.18425712708e-06
Seen 1998 samples
Epoch  120 Update  15010 Cost  5.16992591081e-06
Epoch  120 Update  15020 Cost  5.53287426758e-05
Epoch  120 Update  15030 Cost  1.01744379507e-05
Epoch  120 Update  15040 Cost  4.09409551782e-05
Epoch  120 Update  15050 Cost  2.48570564933e-06
Epoch  120 Update  15060 Cost  4.63255726026e-05
Epoch  120 Update  15070 Cost  1.26637636832e-06
Epoch  120 Update  15080 Cost  6.64901833234e-05
Epoch  120 Update  15090 Cost  3.72662372887e-05
Epoch  120 Update  15100 Cost  3.23479886676e-06
Epoch  120 Update  15110 Cost  6.39081264684e-05
Epoch  120 Update  15120 Cost  1.75763885174e-05
Seen 1998 samples
Epoch  121 Update  15130 Cost  1.25784164569e-05
Epoch  121 Update  15140 Cost  6.43399240028e-06
Epoch  121 Update  15150 Cost  2.22453775973e-06
Epoch  121 Update  15160 Cost  5.76945149762e-06
Epoch  121 Update  15170 Cost  3.36751051879e-05
('Train ', 0.0, 'Valid ', 0.16190476190476188, 'Test ', 0.20399999999999996)
Epoch  121 Update  15180 Cost  1.31397702426e-06
Epoch  121 Update  15190 Cost  1.55065381147e-05
Epoch  121 Update  15200 Cost  6.83505679307e-07
Epoch  121 Update  15210 Cost  2.19898879367e-05
Epoch  121 Update  15220 Cost  1.57161522586e-06
Epoch  121 Update  15230 Cost  4.38257717059e-06
Epoch  121 Update  15240 Cost  4.71285483787e-06
Epoch  121 Update  15250 Cost  7.93524334579e-07
Seen 1998 samples
Epoch  122 Update  15260 Cost  3.19261554236e-06
Epoch  122 Update  15270 Cost  8.9575074705e-06
Epoch  122 Update  15280 Cost  2.52105077545e-05
Epoch  122 Update  15290 Cost  5.5611007276e-06
Epoch  122 Update  15300 Cost  1.97369385609e-06
Epoch  122 Update  15310 Cost  5.18407898974e-05
Epoch  122 Update  15320 Cost  3.40927004702e-06
Epoch  122 Update  15330 Cost  1.06417956789e-06
Epoch  122 Update  15340 Cost  4.17679706354e-06
Epoch  122 Update  15350 Cost  2.95890679472e-05
Epoch  122 Update  15360 Cost  2.20180453966e-05
Epoch  122 Update  15370 Cost  7.16430990365e-06
Seen 1998 samples
Epoch  123 Update  15380 Cost  8.0802058223e-06
Epoch  123 Update  15390 Cost  7.47775204037e-06
Epoch  123 Update  15400 Cost  2.99982526268e-05
Epoch  123 Update  15410 Cost  5.22286066606e-06
Epoch  123 Update  15420 Cost  9.47227984085e-06
Epoch  123 Update  15430 Cost  5.54687966582e-05
Epoch  123 Update  15440 Cost  0.000228861605921
Epoch  123 Update  15450 Cost  5.0687421869e-06
Epoch  123 Update  15460 Cost  2.49247556467e-06
Epoch  123 Update  15470 Cost  9.44105707397e-06
Epoch  123 Update  15480 Cost  9.68041686616e-06
Epoch  123 Update  15490 Cost  1.51569379079e-05
Epoch  123 Update  15500 Cost  7.15057445827e-06
Seen 1998 samples
Epoch  124 Update  15510 Cost  6.99058779938e-06
Epoch  124 Update  15520 Cost  4.12877851606e-05
Epoch  124 Update  15530 Cost  2.46582721582e-06
Epoch  124 Update  15540 Cost  2.19154690119e-05
Saving... Done
('Train ', 0.0, 'Valid ', 0.16190476190476188, 'Test ', 0.18999999999999995)
Epoch  124 Update  15550 Cost  1.71511927951e-05
Epoch  124 Update  15560 Cost  2.92249786845e-06
Epoch  124 Update  15570 Cost  3.98436736756e-06
Epoch  124 Update  15580 Cost  1.06430565033e-05
Epoch  124 Update  15590 Cost  5.35660620374e-07
Epoch  124 Update  15600 Cost  1.39762444725e-05
Epoch  124 Update  15610 Cost  1.02404443354e-05
Epoch  124 Update  15620 Cost  8.55368037415e-06
Seen 1998 samples
Epoch  125 Update  15630 Cost  1.49686559955e-06
Epoch  125 Update  15640 Cost  2.71122919713e-06
Epoch  125 Update  15650 Cost  1.49104207412e-05
Epoch  125 Update  15660 Cost  5.09900508774e-06
Epoch  125 Update  15670 Cost  4.58195165261e-05
Epoch  125 Update  15680 Cost  3.35333412621e-05
Epoch  125 Update  15690 Cost  1.74394923482e-05
Epoch  125 Update  15700 Cost  1.77540670688e-07
Epoch  125 Update  15710 Cost  2.13120759903e-05
Epoch  125 Update  15720 Cost  1.83293612006e-05
Epoch  125 Update  15730 Cost  1.11511033523e-05
Epoch  125 Update  15740 Cost  3.51476548417e-06
Epoch  125 Update  15750 Cost  3.59273079883e-06
Seen 1998 samples
Epoch  126 Update  15760 Cost  1.83275215401e-06
Epoch  126 Update  15770 Cost  1.01636749736e-06
Epoch  126 Update  15780 Cost  3.84761690957e-07
Epoch  126 Update  15790 Cost  1.68967871212e-05
Epoch  126 Update  15800 Cost  2.80540511446e-07
Epoch  126 Update  15810 Cost  7.58203600245e-06
Epoch  126 Update  15820 Cost  3.84610857351e-06
Epoch  126 Update  15830 Cost  3.45889852233e-06
Epoch  126 Update  15840 Cost  1.99556295017e-05
Epoch  126 Update  15850 Cost  2.80308161112e-05
Epoch  126 Update  15860 Cost  1.71839545773e-05
Epoch  126 Update  15870 Cost  1.73695855847e-05
Seen 1998 samples
Epoch  127 Update  15880 Cost  9.03257684946e-07
Epoch  127 Update  15890 Cost  1.89793336681e-06
Epoch  127 Update  15900 Cost  4.75073903527e-06
Epoch  127 Update  15910 Cost  1.45385477945e-05
('Train ', 0.0, 'Valid ', 0.16190476190476188, 'Test ', 0.19599999999999995)
Epoch  127 Update  15920 Cost  1.78400142621e-06
Epoch  127 Update  15930 Cost  1.09663113298e-07
Epoch  127 Update  15940 Cost  1.14186711608e-06
Epoch  127 Update  15950 Cost  8.50442902473e-06
Epoch  127 Update  15960 Cost  6.30532599584e-07
Epoch  127 Update  15970 Cost  2.81664113014e-05
Epoch  127 Update  15980 Cost  4.99178309289e-05
Epoch  127 Update  15990 Cost  2.86217348352e-06
Epoch  127 Update  16000 Cost  6.97004675211e-07
Seen 1998 samples
Epoch  128 Update  16010 Cost  4.73201837326e-07
Epoch  128 Update  16020 Cost  4.26672043099e-06
Epoch  128 Update  16030 Cost  3.28958446456e-06
Epoch  128 Update  16040 Cost  4.11675627992e-07
Epoch  128 Update  16050 Cost  7.72451347416e-06
Epoch  128 Update  16060 Cost  3.32916389729e-06
Epoch  128 Update  16070 Cost  2.76879507543e-06
Epoch  128 Update  16080 Cost  3.28140020561e-06
Epoch  128 Update  16090 Cost  2.37698523166e-06
Epoch  128 Update  16100 Cost  7.34819823599e-06
Epoch  128 Update  16110 Cost  1.25235902968e-05
Epoch  128 Update  16120 Cost  2.36301442921e-05
Seen 1998 samples
Epoch  129 Update  16130 Cost  1.21930551931e-06
Epoch  129 Update  16140 Cost  2.4833769489e-05
Epoch  129 Update  16150 Cost  8.10101864339e-06
Epoch  129 Update  16160 Cost  1.76122063282e-06
Epoch  129 Update  16170 Cost  2.157935544e-06
Epoch  129 Update  16180 Cost  1.08665435096e-05
Epoch  129 Update  16190 Cost  7.53480690514e-06
Epoch  129 Update  16200 Cost  7.38151273941e-07
Epoch  129 Update  16210 Cost  6.9986032126e-06
Epoch  129 Update  16220 Cost  1.74441897909e-06
Epoch  129 Update  16230 Cost  2.15034923913e-06
Epoch  129 Update  16240 Cost  1.9109290331e-05
Epoch  129 Update  16250 Cost  1.16435898618e-06
Seen 1998 samples
Epoch  130 Update  16260 Cost  2.57463780494e-06
Epoch  130 Update  16270 Cost  2.24454766628e-06
Epoch  130 Update  16280 Cost  8.73050248382e-07
('Train ', 0.0, 'Valid ', 0.16190476190476188, 'Test ', 0.20599999999999996)
Epoch  130 Update  16290 Cost  2.27208709033e-06
Epoch  130 Update  16300 Cost  9.72735637951e-06
Epoch  130 Update  16310 Cost  1.33472033436e-06
Epoch  130 Update  16320 Cost  4.38071009079e-05
Epoch  130 Update  16330 Cost  6.40629659507e-06
Epoch  130 Update  16340 Cost  6.8211325138e-06
Epoch  130 Update  16350 Cost  2.93691425172e-05
Epoch  130 Update  16360 Cost  1.75323330572e-06
Epoch  130 Update  16370 Cost  2.71270835637e-06
Seen 1998 samples
Epoch  131 Update  16380 Cost  2.60467690919e-07
Epoch  131 Update  16390 Cost  2.4415333713e-06
Epoch  131 Update  16400 Cost  8.51510951185e-06
Epoch  131 Update  16410 Cost  5.02705460558e-06
Epoch  131 Update  16420 Cost  1.04372438514e-07
Epoch  131 Update  16430 Cost  6.62078912053e-06
Epoch  131 Update  16440 Cost  1.83812245188e-06
Epoch  131 Update  16450 Cost  2.24399688715e-07
Epoch  131 Update  16460 Cost  5.04412646036e-07
Epoch  131 Update  16470 Cost  1.6568061908e-06
Epoch  131 Update  16480 Cost  9.86615421125e-07
Epoch  131 Update  16490 Cost  3.11593234905e-07
Epoch  131 Update  16500 Cost  7.47129976908e-07
Seen 1998 samples
Epoch  132 Update  16510 Cost  4.53700051797e-06
Epoch  132 Update  16520 Cost  5.26224718619e-06
Epoch  132 Update  16530 Cost  9.78836918675e-06
Epoch  132 Update  16540 Cost  4.48105283007e-07
Epoch  132 Update  16550 Cost  4.49674417481e-06
Epoch  132 Update  16560 Cost  1.90427094242e-06
Epoch  132 Update  16570 Cost  2.1482078501e-06
Epoch  132 Update  16580 Cost  3.29880606657e-05
Epoch  132 Update  16590 Cost  1.44271495739e-05
Epoch  132 Update  16600 Cost  1.41156965635e-05
Epoch  132 Update  16610 Cost  7.02052573414e-07
Epoch  132 Update  16620 Cost  2.00302616504e-07
Seen 1998 samples
Epoch  133 Update  16630 Cost  1.3326285744e-06
Epoch  133 Update  16640 Cost  7.56218712972e-07
Epoch  133 Update  16650 Cost  7.1264679694e-07
Saving... Done
('Train ', 0.0, 'Valid ', 0.16190476190476188, 'Test ', 0.19999999999999996)
Epoch  133 Update  16660 Cost  1.83490178741e-06
Epoch  133 Update  16670 Cost  7.62378014117e-05
Epoch  133 Update  16680 Cost  2.07375489782e-05
Epoch  133 Update  16690 Cost  4.4776491859e-06
Epoch  133 Update  16700 Cost  6.4720625546e-06
Epoch  133 Update  16710 Cost  1.11701154138e-06
Epoch  133 Update  16720 Cost  1.27408086326e-06
Epoch  133 Update  16730 Cost  1.12964100888e-05
Epoch  133 Update  16740 Cost  3.78745379704e-06
Epoch  133 Update  16750 Cost  8.46239621524e-06
Seen 1998 samples
Epoch  134 Update  16760 Cost  9.30153476806e-07
Epoch  134 Update  16770 Cost  4.83563439751e-05
Epoch  134 Update  16780 Cost  1.82869427042e-06
Epoch  134 Update  16790 Cost  7.76697961596e-07
Epoch  134 Update  16800 Cost  2.15752314639e-07
Epoch  134 Update  16810 Cost  9.58453620119e-05
Epoch  134 Update  16820 Cost  2.48146188347e-06
Epoch  134 Update  16830 Cost  0.000166064654557
Epoch  134 Update  16840 Cost  8.94840871682e-05
Epoch  134 Update  16850 Cost  2.24365653391e-07
Epoch  134 Update  16860 Cost  2.29182793959e-07
Epoch  134 Update  16870 Cost  1.70389045378e-06
Seen 1998 samples
Epoch  135 Update  16880 Cost  8.29793422938e-05
Epoch  135 Update  16890 Cost  2.60448192929e-06
Epoch  135 Update  16900 Cost  1.46775683523e-05
Epoch  135 Update  16910 Cost  1.20415256245e-05
Epoch  135 Update  16920 Cost  3.64483451833e-05
Epoch  135 Update  16930 Cost  4.23804699283e-07
Epoch  135 Update  16940 Cost  4.03027120229e-05
Epoch  135 Update  16950 Cost  2.14508615537e-05
Epoch  135 Update  16960 Cost  2.15698483219e-06
Epoch  135 Update  16970 Cost  2.44176531468e-05
Epoch  135 Update  16980 Cost  5.57749918194e-06
Epoch  135 Update  16990 Cost  2.96048641233e-05
Epoch  135 Update  17000 Cost  1.96430769511e-05
Seen 1998 samples
Epoch  136 Update  17010 Cost  8.04999809392e-06
Epoch  136 Update  17020 Cost  3.0470758959e-07
('Train ', 0.0, 'Valid ', 0.16190476190476188, 'Test ', 0.19599999999999995)
Early Stop!
Seen 320 samples
Train  0.0 Valid  0.152380952381 Test  0.208
The code run for 137 epochs, with 103.937104 sec/epochs
Training took 14239.4s
